<?xml version="1.0" standalone="no"?>
<!DOCTYPE svg PUBLIC "-//W3C//DTD SVG 1.1//EN" "http://www.w3.org/Graphics/SVG/1.1/DTD/svg11.dtd" >
<svg xmlns="http://www.w3.org/2000/svg" xmlns:xlink="http://www.w3.org/1999/xlink" version="1.1">
<metadata></metadata>
<defs>
<font id="comic_runesregular" horiz-adv-x="456" >
<font-face units-per-em="2048" ascent="2038" descent="-10" />
<missing-glyph horiz-adv-x="500" />
<glyph horiz-adv-x="0" />
<glyph horiz-adv-x="682" />
<glyph />
<glyph />
<glyph />
<glyph unicode="&#x9;" />
<glyph unicode="&#xa;" />
<glyph unicode="&#xd;" />
<glyph unicode=" " />
<glyph unicode="!" horiz-adv-x="448" d="M223 66q0 31 22.5 53t53.5 22t52.5 -22t21.5 -53t-21.5 -51.5t-52.5 -20.5t-53.5 21t-22.5 51zM223 438v1118q0 31 22.5 52.5t53.5 21.5t52.5 -21.5t21.5 -52.5v-1118q0 -31 -21.5 -52t-52.5 -21t-53.5 21.5t-22.5 51.5z" />
<glyph unicode="&#x22;" />
<glyph unicode="#" />
<glyph unicode="$" />
<glyph unicode="%" />
<glyph unicode="&#x26;" />
<glyph unicode="'" />
<glyph unicode="(" />
<glyph unicode=")" />
<glyph unicode="*" />
<glyph unicode="+" />
<glyph unicode="," horiz-adv-x="493" d="M-1 -248.5q-2 25.5 13 47.5l252 314q17 22 42.5 24.5t45.5 -14.5q22 -17 24.5 -42.5t-14.5 -45.5l-251 -316q-18 -24 -50 -24q-20 0 -41 14q-19 17 -21 42.5z" />
<glyph unicode="-" />
<glyph unicode="." horiz-adv-x="489" d="M223 66q0 31 22.5 53t53.5 22t52.5 -22t21.5 -53t-21.5 -51.5t-52.5 -20.5t-53.5 21t-22.5 51z" />
<glyph unicode="/" />
<glyph unicode="0" horiz-adv-x="901" d="M41 811q0 29 18 53l340 408q28 31 64 31q40 0 65 -31l314 -398q18 -21 18 -51v-6q0 -34 -16 -55l-316 -410q-26 -33 -65 -33q-35 0 -64 29l-340 410q-18 24 -18 53zM229 811l232 -279l219 285l-219 275z" />
<glyph unicode="1" horiz-adv-x="901" d="M78 811q0 25 16 47l596 744q22 28 58 28q31 0 53 -21.5t22 -52.5v-1490q0 -29 -22 -50.5t-53 -21.5q-29 0 -51.5 21.5t-22.5 50.5v1277l-463 -579q-24 -27 -57 -27q-31 0 -53.5 21.5t-22.5 52.5z" />
<glyph unicode="2" horiz-adv-x="901" d="M78 66q0 16 10 36l571 1074l-208 260l-240 -299q-25 -29 -57 -29q-31 0 -53.5 22.5t-22.5 53.5q0 25 16 47l299 371q22 28 58 28q37 0 59 -28l297 -371q16 -22 16 -49q0 -18 -10 -35l-537 -1006h472q31 0 53 -22t22 -53q0 -29 -22 -50.5t-53 -21.5q-66 0 -187 -1.5 t-220 -1.5t-187 3q-32 2 -54 22t-22 50z" />
<glyph unicode="3" horiz-adv-x="901" d="M78 66q0 28 16 47l500 624h-440q-31 0 -53.5 21.5t-22.5 52.5q0 25 16 47l500 623h-440q-31 0 -53.5 22t-22.5 53q0 29 22.5 51.5t53.5 22.5h594q31 0 53 -21.5t22 -52.5q0 -28 -16 -47l-500 -624h441q31 0 53 -21.5t22 -52.5q0 -25 -16 -47l-596 -744q-20 -26 -57 -26 q-31 0 -53.5 21.5t-22.5 50.5z" />
<glyph unicode="4" horiz-adv-x="901" d="M78 811q0 25 16 47l596 744q22 28 58 28q31 0 53 -21.5t22 -52.5v-1490q0 -29 -22 -50.5t-53 -21.5q-29 0 -51.5 21.5t-22.5 50.5v671h-520q-31 0 -53.5 21.5t-22.5 52.5zM307 885h367v458z" />
<glyph unicode="5" horiz-adv-x="901" d="M78 438q0 31 22.5 53.5t51.5 22.5q34 0 59 -29l240 -299l223 279v643h-520q-31 0 -53.5 22.5t-22.5 53.5v372q0 30 21.5 51t52.5 23q88 3 188 3t221.5 -1.5t186.5 -1.5q30 0 52.5 -22t22.5 -52q0 -31 -22 -53t-53 -22h-521v-224h523q30 0 51.5 -21.5t21.5 -51.5v-746 q0 -25 -16 -47l-297 -371q-20 -26 -59 -26q-38 0 -58 26l-299 371q-16 22 -16 47z" />
<glyph unicode="6" horiz-adv-x="901" d="M78 811q0 17 6 29l299 743q7 21 26.5 34t41.5 13q31 0 53 -22t22 -52q0 -13 -23 -77t-61.5 -159t-71 -174.5t-69.5 -167t-39 -93.5h486q31 0 53 -21t22 -53q0 -17 -6 -29l-297 -743q-19 -45 -69 -45q-51 0 -70 45l-297 743q-6 12 -6 29zM262 737l189 -471l188 471h-377z " />
<glyph unicode="7" horiz-adv-x="901" d="M78 66q0 13 52 149t132 335.5t156 386.5t144.5 355.5t76.5 188.5h-485q-31 0 -53.5 22t-22.5 53q0 29 22.5 51.5t53.5 22.5q66 0 187 1t220 1t187 -2q31 -2 53 -23t22 -51q0 -15 -6 -30l-596 -1487q-16 -45 -67 -45q-31 0 -53.5 21.5t-22.5 50.5z" />
<glyph unicode="8" horiz-adv-x="901" d="M79 439q0 26 15 46l260 326l-260 326q-15 20 -15 46t15 48l299 371q22 28 58 28q35 0 57 -28l299 -371q15 -22 15 -48t-15 -46l-260 -326l260 -326q15 -20 15 -46t-15 -48l-299 -371q-20 -26 -57 -26q-38 0 -58 26l-299 371q-15 22 -15 48zM248 438l203 -252l202 252 l-202 254zM248 1184l203 -254l202 254l-202 252z" />
<glyph unicode="9" horiz-adv-x="901" d="M78 811q0 17 6 29l297 743q7 20 26.5 33.5t41.5 13.5q23 0 42.5 -12.5t28.5 -34.5l297 -743q6 -15 6 -29t-6 -29l-297 -743q-19 -45 -69 -45q-31 0 -52.5 21.5t-21.5 50.5q0 10 12.5 47t34 93.5t45.5 117t53 131.5t50 121.5t42.5 101.5t24.5 59h-485q-31 0 -53.5 21 t-22.5 53zM262 885h377l-188 471z" />
<glyph unicode=":" />
<glyph unicode=";" />
<glyph unicode="&#x3c;" />
<glyph unicode="=" />
<glyph unicode="&#x3e;" />
<glyph unicode="?" horiz-adv-x="794" d="M0 1184q0 25 16 47l299 371q22 28 58 28q37 0 59 -28l295 -371q18 -21 18 -47q0 -29 -18 -47l-281 -353v-346q0 -31 -21 -52t-52 -21t-53.5 21.5t-22.5 51.5v373q0 25 16 47l262 326l-202 252l-240 -299q-23 -29 -59 -29q-29 0 -51.5 22.5t-22.5 53.5zM299 66 q0 -29 21.5 -50.5t52.5 -21.5t53.5 21.5t22.5 50.5q0 31 -22.5 53t-53.5 22t-52.5 -22t-21.5 -53z" />
<glyph unicode="@" horiz-adv-x="808" d="M0 438q0 28 16 47l297 373q24 27 60 27q33 0 57 -27l166 -207v506l-223 279l-223 -279v-346q0 -31 -22.5 -52.5t-53.5 -21.5q-30 0 -52 22t-22 52v373q0 25 16 47l297 371q22 28 60 28q35 0 57 -28l299 -371q16 -22 16 -47v-746q0 -25 -16 -47l-297 -371q-20 -26 -59 -26 q-38 0 -58 26l-299 371q-16 22 -16 47zM170 438l203 -252l202 252l-202 254z" />
<glyph unicode="A" horiz-adv-x="882" d="M92 74v1491q0 22 13 41t34 26q20 9 42.5 5t37.5 -21l594 -594q23 -20 23 -51v-897q0 -31 -21.5 -52.5t-52.5 -21.5q-32 0 -54 21.5t-22 52.5v381l-444 444v-825q0 -31 -21.5 -52.5t-52.5 -21.5t-53.5 21.5t-22.5 52.5zM242 1110l444 -444v274l-444 444v-274z" />
<glyph unicode="B" horiz-adv-x="886" d="M94 442l2 369v754q0 31 21.5 52t52.5 21q24 0 39 -12l590 -383q35 -21 35 -61q0 -43 -35 -64l-490 -307l490 -305q35 -21 35 -64q0 -40 -35 -61l-590 -371q-12 -6 -39 -10q-30 -1 -52 21.5t-22 52.5q-3 0 -3 164q0 81 1 204zM244 207l377 235l-377 236v-471zM244 944 l379 238l-379 248v-486z" />
<glyph unicode="C" horiz-adv-x="872" d="M92 819q0 28 19 47l594 744q22 28 59 28q29 0 51.5 -22t22.5 -51q0 -27 -17 -47l-559 -699l559 -698q17 -20 17 -47q0 -29 -22.5 -51.5t-51.5 -22.5q-36 0 -59 29l-594 743q-19 19 -19 47z" />
<glyph unicode="D" horiz-adv-x="858" d="M92 68v1488q0 24 14 43.5t37 26.5q21 8 44 2t38 -26l596 -744q17 -20 17 -46t-17 -48l-596 -744q-20 -26 -57 -26q-9 0 -25 4q-23 6 -37 25.5t-14 44.5zM242 279l426 532l-426 532v-1064z" />
<glyph unicode="E" horiz-adv-x="880" d="M92 819q0 28 19 47l594 744q22 28 59 28q29 0 51.5 -22t22.5 -51q0 -27 -17 -47l-499 -625h442q30 0 52 -22t22 -52t-22 -52t-52 -22h-442l499 -624q17 -20 17 -47q0 -29 -22.5 -51.5t-51.5 -22.5q-36 0 -59 29l-594 743q-19 19 -19 47z" />
<glyph unicode="F" horiz-adv-x="854" d="M92 74v1491q0 30 22.5 51.5t53.5 21.5q32 0 51 -22l594 -594q23 -20 23 -51t-21.5 -53.5t-52.5 -22.5q-30 0 -53 23l-467 466v-274l571 -571q23 -23 23 -54t-21.5 -52t-52.5 -21q-33 0 -53 20l-467 467v-825q0 -31 -21.5 -52.5t-52.5 -21.5t-53.5 21.5t-22.5 52.5z" />
<glyph unicode="G" horiz-adv-x="905" d="M92 819q0 28 19 47l594 744q22 28 59 28q29 0 51.5 -22t22.5 -51q0 -27 -17 -47l-559 -699l426 -532v532q0 31 22.5 52.5t53.5 21.5q30 0 52 -22t22 -52v-745q0 -30 -22 -51t-52 -23q-36 0 -59 29l-594 743q-19 19 -19 47z" />
<glyph unicode="H" horiz-adv-x="917" d="M92 74v1491q0 30 22.5 51.5t53.5 21.5t52.5 -21t21.5 -52v-299h446v299q0 31 22 52t54 21q31 0 52.5 -21t21.5 -52v-1491q0 -31 -21.5 -52.5t-52.5 -21.5q-32 0 -54 21.5t-22 52.5v671h-446v-671q0 -31 -21.5 -52.5t-52.5 -21.5t-53.5 21.5t-22.5 52.5zM242 893h446v223 h-446v-223z" />
<glyph unicode="I" horiz-adv-x="886" d="M92 1192q0 23 17 47l299 371q22 28 59 28q29 0 51.5 -22t22.5 -51v-1278l164 207q25 28 59 28q31 0 52.5 -22.5t21.5 -53.5q0 -23 -17 -47l-297 -370q-23 -29 -59 -29q-32 2 -53 22t-21 52v1278l-166 -207q-23 -29 -57 -29q-31 0 -53.5 22.5t-22.5 53.5z" />
<glyph unicode="J" horiz-adv-x="917" d="M92 819q0 31 22.5 52.5t53.5 21.5q33 0 57 -27l463 -579v1278q0 30 22.5 51.5t53.5 21.5t52.5 -21t21.5 -52v-1491q0 -30 -22 -51t-52 -23q-36 0 -59 29l-596 743q-17 24 -17 47z" />
<glyph unicode="K" horiz-adv-x="872" d="M92 74v1491q0 30 22.5 51.5t53.5 21.5t52.5 -21t21.5 -52v-533l463 578q20 25 50.5 28.5t53.5 -16.5q25 -20 28.5 -49.5t-16.5 -54.5l-559 -699l559 -698q20 -25 16.5 -55t-28.5 -50q-19 -16 -45 -16q-36 0 -59 29l-463 577v-532q0 -31 -21.5 -52.5t-52.5 -21.5 t-53.5 21.5t-22.5 52.5z" />
<glyph unicode="L" horiz-adv-x="833" d="M92 74v1491q0 30 22.5 51.5t53.5 21.5t52.5 -21t21.5 -52v-1278l463 579q24 27 59 27q31 0 52.5 -21.5t21.5 -52.5q0 -23 -17 -47l-596 -743q-23 -29 -57 -29q-31 2 -53.5 23t-22.5 51z" />
<glyph unicode="M" horiz-adv-x="917" d="M92 74v1491q0 30 22.5 51.5t53.5 21.5q35 0 57 -28l240 -299l240 299q22 28 59 28q30 0 52 -21.5t22 -51.5v-1491q0 -31 -21.5 -52.5t-52.5 -21.5t-53.5 21.5t-22.5 52.5v719l-223 280l-223 -280v-719q0 -31 -21.5 -52.5t-52.5 -21.5t-53.5 21.5t-22.5 52.5zM242 1032 l129 160l-129 160v-320zM561 1192l127 -160v320z" />
<glyph unicode="N" horiz-adv-x="911" d="M92 74v1489q0 31 21.5 53t52.5 22q37 0 59 -28l459 -584v526q0 31 21.5 52.5t52.5 21.5t52 -21.5t21 -52.5v-1478q0 -32 -21 -52t-52 -22q-35 0 -58 29l-458 573v-528q0 -31 -22.5 -52.5t-53.5 -21.5q-30 0 -52 22t-22 52zM242 840l442 -555v501l-442 566v-512z" />
<glyph unicode="O" horiz-adv-x="886" d="M92 819q0 14 6 29l297 743q9 22 28 34.5t42 12.5t42 -12.5t28 -34.5l296 -743q7 -17 7 -29t-7 -26l-296 -746q-7 -21 -26.5 -34t-41.5 -13q-24 0 -43.5 13t-26.5 34l-299 744q-6 15 -6 28zM248 819l217 -545l217 545l-217 545z" />
<glyph unicode="P" horiz-adv-x="851" d="M92 74v1493q0 29 22.5 50t53.5 21q21 0 39 -12l592 -379q35 -25 35 -61q0 -43 -37 -66l-555 -348v-698q0 -31 -22.5 -52.5t-53.5 -21.5q-30 0 -52 22t-22 52zM242 948l379 238l-379 244v-482z" />
<glyph unicode="Q" horiz-adv-x="894" d="M92 819q0 14 6 29l299 743q7 21 26.5 34t41.5 13q24 0 43.5 -13t26.5 -34l296 -745q7 -14 7 -27q0 -11 -7 -28l-137 -345q2 -5 23 -54t38.5 -90.5t38 -93t32.5 -87t12 -47.5q0 -31 -21.5 -52.5t-52.5 -21.5q-24 0 -43.5 13t-26.5 34l-80 199l-79 -199q-9 -22 -28 -34.5 t-42 -12.5t-42 12.5t-28 34.5l-297 744q-6 15 -6 28zM248 819l217 -545l70 172q-2 4 -23 54t-38 91t-38 93t-33 87.5t-12 47.5q0 31 21.5 52.5t52.5 21.5q50 0 70 -45l79 -201l68 172l-217 545z" />
<glyph unicode="R" horiz-adv-x="868" d="M92 74v1493q0 29 22 50t52 21q23 0 41 -12l592 -379q35 -25 35 -61q0 -43 -37 -66l-521 -325l541 -674q17 -24 17 -47q0 -30 -22 -52t-52 -22q-37 0 -60 29l-458 575v-530q0 -31 -22.5 -52.5t-53.5 -21.5q-30 0 -52 22t-22 52zM242 948l379 238l-379 244v-482z" />
<glyph unicode="S" horiz-adv-x="866" d="M92 74q0 23 17 47l497 620h-434q-33 0 -56.5 20.5t-23.5 53.5q0 23 17 47l593 748q19 28 58 28q31 0 52.5 -21t21.5 -52q0 -23 -17 -47l-498 -629h441q31 0 52.5 -21.5t21.5 -52.5q0 -23 -17 -47l-592 -739q-23 -29 -59 -29q-30 0 -52 22t-22 52z" />
<glyph unicode="T" horiz-adv-x="860" d="M92 1192q0 23 17 47l299 371q22 28 57 28q37 0 59 -28l297 -371q17 -24 17 -47q0 -31 -21.5 -53.5t-52.5 -22.5q-34 0 -59 29l-164 207v-1278q0 -31 -21.5 -52.5t-52.5 -21.5t-53.5 21.5t-22.5 52.5v1278l-166 -207q-25 -29 -57 -29q-31 0 -53.5 22.5t-22.5 53.5z" />
<glyph unicode="U" horiz-adv-x="903" d="M92 74v1491q0 30 22.5 51.5t53.5 21.5t52.5 -21t21.5 -52v-1356l446 278v1078q0 30 22.5 51.5t53.5 21.5t52.5 -21t21.5 -52v-1119q0 -40 -37 -63l-594 -371q-12 -8 -39 -12q-30 -1 -53 22t-23 52z" />
<glyph unicode="V" horiz-adv-x="899" d="M92 1565q0 30 22.5 51.5t53.5 21.5q27 0 47.5 -16.5t24.5 -42.5l225 -1124l225 1124q4 26 25 42.5t49 16.5q31 0 52.5 -21t21.5 -52q0 -11 -2 -17l-297 -1487q-6 -26 -27 -43.5t-47 -17.5t-47 17.5t-27 43.5l-297 1487q0 3 -1 8.5t-1 8.5z" />
<glyph unicode="W" horiz-adv-x="917" d="M92 74v1491q0 29 22.5 51t53.5 22q29 0 51.5 -22t22.5 -51v-906l166 207q24 27 57 27q35 0 59 -27l164 -207v906q0 29 22.5 51t53.5 22q29 0 51.5 -22t22.5 -51v-1491q0 -31 -22 -51.5t-52 -22.5q-36 0 -59 29l-240 299l-240 -299q-23 -29 -57 -29q-32 2 -54 22.5 t-22 51.5zM242 287l166 207q24 28 57 28q34 0 59 -28l164 -207v133l-223 280l-223 -280v-133z" />
<glyph unicode="X" horiz-adv-x="884" d="M92 74q0 12 26.5 84t68 175t80.5 199t75.5 184t42.5 103q-6 14 -42.5 103t-75.5 184.5t-80.5 199t-68 175.5t-26.5 84q0 30 22.5 51.5t53.5 21.5q22 0 41.5 -13t26.5 -34l229 -571l229 571q7 21 26.5 34t43.5 13q31 0 52.5 -21t21.5 -52q0 -12 -26.5 -84t-68 -175.5 t-80.5 -199t-75.5 -184.5t-42.5 -103q6 -15 42.5 -103t75.5 -184t80.5 -199t68 -175t26.5 -84q0 -31 -21.5 -52.5t-52.5 -21.5q-24 0 -43.5 13t-26.5 34l-229 571l-229 -571q-7 -21 -26.5 -34t-41.5 -13q-31 0 -53.5 21.5t-22.5 52.5z" />
<glyph unicode="Y" horiz-adv-x="872" d="M98 1536q-12 29 0.5 57t40.5 39q29 12 58 0t39 -41l155 -385v359q0 31 21.5 52t52.5 21t53.5 -21.5t22.5 -51.5v-359l153 385q10 29 39 41t58 0q29 -10 40.5 -38.5t-0.5 -57.5l-290 -731v-731q0 -31 -22.5 -52.5t-53.5 -21.5t-52.5 21.5t-21.5 52.5v731z" />
<glyph unicode="Z" horiz-adv-x="868" d="M92 74q0 15 6 30l555 1385h-485q-31 0 -53.5 22.5t-22.5 53.5q0 30 22.5 51.5t53.5 21.5q65 0 186.5 1t221.5 1t188 -2q30 -2 52 -22.5t22 -50.5q0 -13 -7 -31l-555 -1384h488q31 0 52.5 -22.5t21.5 -53.5t-21.5 -52.5t-52.5 -21.5h-596q-34 3 -55 22t-21 52z" />
<glyph unicode="[" />
<glyph unicode="\" />
<glyph unicode="]" />
<glyph unicode="^" />
<glyph unicode="_" />
<glyph unicode="`" />
<glyph unicode="a" horiz-adv-x="882" d="M92 74v1491q0 22 13 41t34 26q20 9 42.5 5t37.5 -21l594 -594q23 -20 23 -51v-897q0 -31 -21.5 -52.5t-52.5 -21.5q-32 0 -54 21.5t-22 52.5v381l-444 444v-825q0 -31 -21.5 -52.5t-52.5 -21.5t-53.5 21.5t-22.5 52.5zM242 1110l444 -444v274l-444 444v-274z" />
<glyph unicode="b" horiz-adv-x="886" d="M94 442l2 369v754q0 31 21.5 52t52.5 21q24 0 39 -12l590 -383q35 -21 35 -61q0 -43 -35 -64l-490 -307l490 -305q35 -21 35 -64q0 -40 -35 -61l-590 -371q-12 -6 -39 -10q-30 -1 -52 21.5t-22 52.5q-3 0 -3 164q0 81 1 204zM244 207l377 235l-377 236v-471zM244 944 l379 238l-379 248v-486z" />
<glyph unicode="c" horiz-adv-x="872" d="M92 819q0 28 19 47l594 744q22 28 59 28q29 0 51.5 -22t22.5 -51q0 -27 -17 -47l-559 -699l559 -698q17 -20 17 -47q0 -29 -22.5 -51.5t-51.5 -22.5q-36 0 -59 29l-594 743q-19 19 -19 47z" />
<glyph unicode="d" horiz-adv-x="858" d="M92 68v1488q0 24 14 43.5t37 26.5q21 8 44 2t38 -26l596 -744q17 -20 17 -46t-17 -48l-596 -744q-20 -26 -57 -26q-9 0 -25 4q-23 6 -37 25.5t-14 44.5zM242 279l426 532l-426 532v-1064z" />
<glyph unicode="e" horiz-adv-x="880" d="M92 819q0 28 19 47l594 744q22 28 59 28q29 0 51.5 -22t22.5 -51q0 -27 -17 -47l-499 -625h442q30 0 52 -22t22 -52t-22 -52t-52 -22h-442l499 -624q17 -20 17 -47q0 -29 -22.5 -51.5t-51.5 -22.5q-36 0 -59 29l-594 743q-19 19 -19 47z" />
<glyph unicode="f" horiz-adv-x="854" d="M92 74v1491q0 30 22.5 51.5t53.5 21.5q32 0 51 -22l594 -594q23 -20 23 -51t-21.5 -53.5t-52.5 -22.5q-30 0 -53 23l-467 466v-274l571 -571q23 -23 23 -54t-21.5 -52t-52.5 -21q-33 0 -53 20l-467 467v-825q0 -31 -21.5 -52.5t-52.5 -21.5t-53.5 21.5t-22.5 52.5z" />
<glyph unicode="g" horiz-adv-x="905" d="M92 819q0 28 19 47l594 744q22 28 59 28q29 0 51.5 -22t22.5 -51q0 -27 -17 -47l-559 -699l426 -532v532q0 31 22.5 52.5t53.5 21.5q30 0 52 -22t22 -52v-745q0 -30 -22 -51t-52 -23q-36 0 -59 29l-594 743q-19 19 -19 47z" />
<glyph unicode="h" horiz-adv-x="917" d="M92 74v1491q0 30 22.5 51.5t53.5 21.5t52.5 -21t21.5 -52v-299h446v299q0 31 22 52t54 21q31 0 52.5 -21t21.5 -52v-1491q0 -31 -21.5 -52.5t-52.5 -21.5q-32 0 -54 21.5t-22 52.5v671h-446v-671q0 -31 -21.5 -52.5t-52.5 -21.5t-53.5 21.5t-22.5 52.5zM242 893h446v223 h-446v-223z" />
<glyph unicode="i" horiz-adv-x="886" d="M92 1192q0 23 17 47l299 371q22 28 59 28q29 0 51.5 -22t22.5 -51v-1278l164 207q25 28 59 28q31 0 52.5 -22.5t21.5 -53.5q0 -23 -17 -47l-297 -370q-23 -29 -59 -29q-32 2 -53 22t-21 52v1278l-166 -207q-23 -29 -57 -29q-31 0 -53.5 22.5t-22.5 53.5z" />
<glyph unicode="j" horiz-adv-x="917" d="M92 819q0 31 22.5 52.5t53.5 21.5q33 0 57 -27l463 -579v1278q0 30 22.5 51.5t53.5 21.5t52.5 -21t21.5 -52v-1491q0 -30 -22 -51t-52 -23q-36 0 -59 29l-596 743q-17 24 -17 47z" />
<glyph unicode="k" horiz-adv-x="872" d="M92 74v1491q0 30 22.5 51.5t53.5 21.5t52.5 -21t21.5 -52v-533l463 578q20 25 50.5 28.5t53.5 -16.5q25 -20 28.5 -49.5t-16.5 -54.5l-559 -699l559 -698q20 -25 16.5 -55t-28.5 -50q-19 -16 -45 -16q-36 0 -59 29l-463 577v-532q0 -31 -21.5 -52.5t-52.5 -21.5 t-53.5 21.5t-22.5 52.5z" />
<glyph unicode="l" horiz-adv-x="833" d="M92 74v1491q0 30 22.5 51.5t53.5 21.5t52.5 -21t21.5 -52v-1278l463 579q24 27 59 27q31 0 52.5 -21.5t21.5 -52.5q0 -23 -17 -47l-596 -743q-23 -29 -57 -29q-31 2 -53.5 23t-22.5 51z" />
<glyph unicode="m" horiz-adv-x="917" d="M92 74v1491q0 30 22.5 51.5t53.5 21.5q35 0 57 -28l240 -299l240 299q22 28 59 28q30 0 52 -21.5t22 -51.5v-1491q0 -31 -21.5 -52.5t-52.5 -21.5t-53.5 21.5t-22.5 52.5v719l-223 280l-223 -280v-719q0 -31 -21.5 -52.5t-52.5 -21.5t-53.5 21.5t-22.5 52.5zM242 1032 l129 160l-129 160v-320zM561 1192l127 -160v320z" />
<glyph unicode="n" horiz-adv-x="911" d="M92 74v1489q0 31 21.5 53t52.5 22q37 0 59 -28l459 -584v526q0 31 21.5 52.5t52.5 21.5t52 -21.5t21 -52.5v-1478q0 -32 -21 -52t-52 -22q-35 0 -58 29l-458 573v-528q0 -31 -22.5 -52.5t-53.5 -21.5q-30 0 -52 22t-22 52zM242 840l442 -555v501l-442 566v-512z" />
<glyph unicode="o" horiz-adv-x="886" d="M92 819q0 14 6 29l297 743q9 22 28 34.5t42 12.5t42 -12.5t28 -34.5l296 -743q7 -17 7 -29t-7 -26l-296 -746q-7 -21 -26.5 -34t-41.5 -13q-24 0 -43.5 13t-26.5 34l-299 744q-6 15 -6 28zM248 819l217 -545l217 545l-217 545z" />
<glyph unicode="p" horiz-adv-x="851" d="M92 74v1493q0 29 22.5 50t53.5 21q21 0 39 -12l592 -379q35 -25 35 -61q0 -43 -37 -66l-555 -348v-698q0 -31 -22.5 -52.5t-53.5 -21.5q-30 0 -52 22t-22 52zM242 948l379 238l-379 244v-482z" />
<glyph unicode="q" horiz-adv-x="894" d="M92 819q0 14 6 29l299 743q7 21 26.5 34t41.5 13q24 0 43.5 -13t26.5 -34l296 -745q7 -14 7 -27q0 -11 -7 -28l-137 -345q2 -5 23 -54t38.5 -90.5t38 -93t32.5 -87t12 -47.5q0 -31 -21.5 -52.5t-52.5 -21.5q-24 0 -43.5 13t-26.5 34l-80 199l-79 -199q-9 -22 -28 -34.5 t-42 -12.5t-42 12.5t-28 34.5l-297 744q-6 15 -6 28zM248 819l217 -545l70 172q-2 4 -23 54t-38 91t-38 93t-33 87.5t-12 47.5q0 31 21.5 52.5t52.5 21.5q50 0 70 -45l79 -201l68 172l-217 545z" />
<glyph unicode="r" horiz-adv-x="868" d="M92 74v1493q0 29 22 50t52 21q23 0 41 -12l592 -379q35 -25 35 -61q0 -43 -37 -66l-521 -325l541 -674q17 -24 17 -47q0 -30 -22 -52t-52 -22q-37 0 -60 29l-458 575v-530q0 -31 -22.5 -52.5t-53.5 -21.5q-30 0 -52 22t-22 52zM242 948l379 238l-379 244v-482z" />
<glyph unicode="s" horiz-adv-x="866" d="M92 74q0 23 17 47l497 620h-434q-33 0 -56.5 20.5t-23.5 53.5q0 23 17 47l593 748q19 28 58 28q31 0 52.5 -21t21.5 -52q0 -23 -17 -47l-498 -629h441q31 0 52.5 -21.5t21.5 -52.5q0 -23 -17 -47l-592 -739q-23 -29 -59 -29q-30 0 -52 22t-22 52z" />
<glyph unicode="t" horiz-adv-x="892" d="M92 1192q0 23 17 47l299 371q22 28 57 28q37 0 59 -28l297 -371q17 -24 17 -47q0 -31 -21.5 -53.5t-52.5 -22.5q-34 0 -59 29l-164 207v-1278q0 -31 -21.5 -52.5t-52.5 -21.5t-53.5 21.5t-22.5 52.5v1278l-166 -207q-25 -29 -57 -29q-31 0 -53.5 22.5t-22.5 53.5z" />
<glyph unicode="u" horiz-adv-x="903" d="M92 74v1491q0 30 22.5 51.5t53.5 21.5t52.5 -21t21.5 -52v-1356l446 278v1078q0 30 22.5 51.5t53.5 21.5t52.5 -21t21.5 -52v-1119q0 -40 -37 -63l-594 -371q-12 -8 -39 -12q-30 -1 -53 22t-23 52z" />
<glyph unicode="v" horiz-adv-x="899" d="M92 1565q0 30 22.5 51.5t53.5 21.5q27 0 47.5 -16.5t24.5 -42.5l225 -1124l225 1124q4 26 25 42.5t49 16.5q31 0 52.5 -21t21.5 -52q0 -11 -2 -17l-297 -1487q-6 -26 -27 -43.5t-47 -17.5t-47 17.5t-27 43.5l-297 1487q0 3 -1 8.5t-1 8.5z" />
<glyph unicode="w" horiz-adv-x="917" d="M92 74v1491q0 29 22.5 51t53.5 22q29 0 51.5 -22t22.5 -51v-906l166 207q24 27 57 27q35 0 59 -27l164 -207v906q0 29 22.5 51t53.5 22q29 0 51.5 -22t22.5 -51v-1491q0 -31 -22 -51.5t-52 -22.5q-36 0 -59 29l-240 299l-240 -299q-23 -29 -57 -29q-32 2 -54 22.5 t-22 51.5zM242 287l166 207q24 28 57 28q34 0 59 -28l164 -207v133l-223 280l-223 -280v-133z" />
<glyph unicode="x" horiz-adv-x="884" d="M92 74q0 12 26.5 84t68 175t80.5 199t75.5 184t42.5 103q-6 14 -42.5 103t-75.5 184.5t-80.5 199t-68 175.5t-26.5 84q0 30 22.5 51.5t53.5 21.5q22 0 41.5 -13t26.5 -34l229 -571l229 571q7 21 26.5 34t43.5 13q31 0 52.5 -21t21.5 -52q0 -12 -26.5 -84t-68 -175.5 t-80.5 -199t-75.5 -184.5t-42.5 -103q6 -15 42.5 -103t75.5 -184t80.5 -199t68 -175t26.5 -84q0 -31 -21.5 -52.5t-52.5 -21.5q-24 0 -43.5 13t-26.5 34l-229 571l-229 -571q-7 -21 -26.5 -34t-41.5 -13q-31 0 -53.5 21.5t-22.5 52.5z" />
<glyph unicode="y" horiz-adv-x="872" d="M98 1536q-12 29 0.5 57t40.5 39q29 12 58 0t39 -41l155 -385v359q0 31 21.5 52t52.5 21t53.5 -21.5t22.5 -51.5v-359l153 385q10 29 39 41t58 0q29 -10 40.5 -38.5t-0.5 -57.5l-290 -731v-731q0 -31 -22.5 -52.5t-53.5 -21.5t-52.5 21.5t-21.5 52.5v731z" />
<glyph unicode="z" horiz-adv-x="868" d="M92 74q0 15 6 30l555 1385h-485q-31 0 -53.5 22.5t-22.5 53.5q0 30 22.5 51.5t53.5 21.5q65 0 186.5 1t221.5 1t188 -2q30 -2 52 -22.5t22 -50.5q0 -13 -7 -31l-555 -1384h488q31 0 52.5 -22.5t21.5 -53.5t-21.5 -52.5t-52.5 -21.5h-596q-34 3 -55 22t-21 52z" />
<glyph unicode="{" />
<glyph unicode="|" />
<glyph unicode="}" />
<glyph unicode="~" />
<glyph unicode="&#xa0;" />
<glyph unicode="&#xa1;" />
<glyph unicode="&#xa2;" />
<glyph unicode="&#xa3;" />
<glyph unicode="&#xa4;" />
<glyph unicode="&#xa5;" />
<glyph unicode="&#xa6;" />
<glyph unicode="&#xa7;" />
<glyph unicode="&#xa8;" />
<glyph unicode="&#xa9;" />
<glyph unicode="&#xaa;" />
<glyph unicode="&#xab;" />
<glyph unicode="&#xac;" />
<glyph unicode="&#xad;" />
<glyph unicode="&#xae;" />
<glyph unicode="&#xaf;" />
<glyph unicode="&#xb0;" />
<glyph unicode="&#xb1;" />
<glyph unicode="&#xb2;" />
<glyph unicode="&#xb3;" />
<glyph unicode="&#xb4;" />
<glyph unicode="&#xb5;" />
<glyph unicode="&#xb6;" />
<glyph unicode="&#xb7;" />
<glyph unicode="&#xb8;" />
<glyph unicode="&#xb9;" />
<glyph unicode="&#xba;" />
<glyph unicode="&#xbb;" />
<glyph unicode="&#xbc;" />
<glyph unicode="&#xbd;" />
<glyph unicode="&#xbe;" />
<glyph unicode="&#xbf;" />
<glyph unicode="&#xc0;" />
<glyph unicode="&#xc1;" />
<glyph unicode="&#xc2;" />
<glyph unicode="&#xc3;" />
<glyph unicode="&#xc4;" />
<glyph unicode="&#xc5;" />
<glyph unicode="&#xc6;" />
<glyph unicode="&#xc7;" />
<glyph unicode="&#xc8;" />
<glyph unicode="&#xc9;" />
<glyph unicode="&#xca;" />
<glyph unicode="&#xcb;" />
<glyph unicode="&#xcc;" />
<glyph unicode="&#xcd;" />
<glyph unicode="&#xce;" />
<glyph unicode="&#xcf;" />
<glyph unicode="&#xd0;" />
<glyph unicode="&#xd1;" />
<glyph unicode="&#xd2;" />
<glyph unicode="&#xd3;" />
<glyph unicode="&#xd4;" />
<glyph unicode="&#xd5;" />
<glyph unicode="&#xd6;" />
<glyph unicode="&#xd7;" />
<glyph unicode="&#xd9;" />
<glyph unicode="&#xda;" />
<glyph unicode="&#xdb;" />
<glyph unicode="&#xdc;" />
<glyph unicode="&#xdd;" />
<glyph unicode="&#xde;" />
<glyph unicode="&#xdf;" />
<glyph unicode="&#xe0;" />
<glyph unicode="&#xe1;" />
<glyph unicode="&#xe2;" />
<glyph unicode="&#xe3;" />
<glyph unicode="&#xe4;" />
<glyph unicode="&#xe5;" />
<glyph unicode="&#xe9;" />
<glyph unicode="&#xeb;" />
<glyph unicode="&#xec;" />
<glyph unicode="&#xed;" />
<glyph unicode="&#xee;" />
<glyph unicode="&#xef;" />
<glyph unicode="&#xf0;" />
<glyph unicode="&#xf1;" />
<glyph unicode="&#xf2;" />
<glyph unicode="&#xf3;" />
<glyph unicode="&#xf4;" />
<glyph unicode="&#xf5;" />
<glyph unicode="&#xf6;" />
<glyph unicode="&#xf7;" />
<glyph unicode="&#xf8;" />
<glyph unicode="&#xf9;" />
<glyph unicode="&#xfa;" />
<glyph unicode="&#xfb;" />
<glyph unicode="&#xfc;" />
<glyph unicode="&#xfd;" />
<glyph unicode="&#xfe;" />
<glyph unicode="&#xff;" />
<glyph unicode="&#x178;" />
<glyph unicode="&#x2018;" />
<glyph unicode="&#x2019;" />
<glyph unicode="&#x201c;" />
<glyph unicode="&#x201d;" />
<glyph unicode="&#x25fc;" horiz-adv-x="1638" d="M0 0v1638h1638v-1638h-1638z" />
<hkern u1="&#x21;" u2="j" k="49" />
<hkern u1="&#x21;" u2="J" k="49" />
<hkern u1="&#x21;" u2="&#x40;" k="-104" />
<hkern u1="&#x21;" u2="&#x3f;" k="-63" />
<hkern u1="&#x21;" u2="&#x30;" k="-51" />
<hkern u1="&#x21;" u2="&#x2e;" k="100" />
<hkern u1="&#x21;" u2="&#x2c;" k="238" />
<hkern u1="&#x21;" u2="&#x21;" k="100" />
<hkern u1="&#x2c;" u2="y" k="303" />
<hkern u1="&#x2c;" u2="v" k="295" />
<hkern u1="&#x2c;" u2="t" k="303" />
<hkern u1="&#x2c;" u2="q" k="283" />
<hkern u1="&#x2c;" u2="o" k="283" />
<hkern u1="&#x2c;" u2="j" k="625" />
<hkern u1="&#x2c;" u2="i" k="303" />
<hkern u1="&#x2c;" u2="g" k="625" />
<hkern u1="&#x2c;" u2="e" k="625" />
<hkern u1="&#x2c;" u2="c" k="625" />
<hkern u1="&#x2c;" u2="Y" k="303" />
<hkern u1="&#x2c;" u2="V" k="295" />
<hkern u1="&#x2c;" u2="T" k="303" />
<hkern u1="&#x2c;" u2="Q" k="283" />
<hkern u1="&#x2c;" u2="O" k="283" />
<hkern u1="&#x2c;" u2="J" k="625" />
<hkern u1="&#x2c;" u2="I" k="303" />
<hkern u1="&#x2c;" u2="G" k="625" />
<hkern u1="&#x2c;" u2="E" k="625" />
<hkern u1="&#x2c;" u2="C" k="625" />
<hkern u1="&#x2c;" u2="&#x40;" k="154" />
<hkern u1="&#x2c;" u2="&#x3f;" k="215" />
<hkern u1="&#x2c;" u2="&#x39;" k="291" />
<hkern u1="&#x2c;" u2="&#x38;" k="231" />
<hkern u1="&#x2c;" u2="&#x36;" k="266" />
<hkern u1="&#x2c;" u2="&#x35;" k="231" />
<hkern u1="&#x2c;" u2="&#x34;" k="621" />
<hkern u1="&#x2c;" u2="&#x31;" k="621" />
<hkern u1="&#x2c;" u2="&#x30;" k="535" />
<hkern u1="&#x2c;" u2="&#x2e;" k="139" />
<hkern u1="&#x2c;" u2="&#x2c;" k="104" />
<hkern u1="&#x2c;" u2="&#x21;" k="139" />
<hkern u1="&#x2e;" u2="y" k="389" />
<hkern u1="&#x2e;" u2="v" k="387" />
<hkern u1="&#x2e;" u2="t" k="389" />
<hkern u1="&#x2e;" u2="q" k="385" />
<hkern u1="&#x2e;" u2="o" k="385" />
<hkern u1="&#x2e;" u2="j" k="440" />
<hkern u1="&#x2e;" u2="i" k="389" />
<hkern u1="&#x2e;" u2="g" k="440" />
<hkern u1="&#x2e;" u2="e" k="440" />
<hkern u1="&#x2e;" u2="c" k="440" />
<hkern u1="&#x2e;" u2="Y" k="389" />
<hkern u1="&#x2e;" u2="V" k="387" />
<hkern u1="&#x2e;" u2="T" k="389" />
<hkern u1="&#x2e;" u2="Q" k="385" />
<hkern u1="&#x2e;" u2="O" k="385" />
<hkern u1="&#x2e;" u2="J" k="440" />
<hkern u1="&#x2e;" u2="I" k="389" />
<hkern u1="&#x2e;" u2="G" k="440" />
<hkern u1="&#x2e;" u2="E" k="440" />
<hkern u1="&#x2e;" u2="C" k="440" />
<hkern u1="&#x2e;" u2="&#x40;" k="291" />
<hkern u1="&#x2e;" u2="&#x3f;" k="299" />
<hkern u1="&#x2e;" u2="&#x39;" k="377" />
<hkern u1="&#x2e;" u2="&#x38;" k="369" />
<hkern u1="&#x2e;" u2="&#x36;" k="373" />
<hkern u1="&#x2e;" u2="&#x35;" k="369" />
<hkern u1="&#x2e;" u2="&#x34;" k="436" />
<hkern u1="&#x2e;" u2="&#x31;" k="436" />
<hkern u1="&#x2e;" u2="&#x30;" k="305" />
<hkern u1="&#x2e;" u2="&#x2e;" k="139" />
<hkern u1="&#x2e;" u2="&#x2c;" k="279" />
<hkern u1="&#x2e;" u2="&#x21;" k="139" />
<hkern u1="&#x30;" u2="z" k="233" />
<hkern u1="&#x30;" u2="y" k="227" />
<hkern u1="&#x30;" u2="x" k="213" />
<hkern u1="&#x30;" u2="v" k="100" />
<hkern u1="&#x30;" u2="t" k="188" />
<hkern u1="&#x30;" u2="i" k="188" />
<hkern u1="&#x30;" u2="Z" k="233" />
<hkern u1="&#x30;" u2="Y" k="227" />
<hkern u1="&#x30;" u2="X" k="213" />
<hkern u1="&#x30;" u2="V" k="100" />
<hkern u1="&#x30;" u2="T" k="188" />
<hkern u1="&#x30;" u2="I" k="188" />
<hkern u1="&#x30;" u2="&#x40;" k="-125" />
<hkern u1="&#x30;" u2="&#x3f;" k="100" />
<hkern u1="&#x30;" u2="&#x38;" k="137" />
<hkern u1="&#x30;" u2="&#x37;" k="219" />
<hkern u1="&#x30;" u2="&#x35;" k="186" />
<hkern u1="&#x30;" u2="&#x32;" k="172" />
<hkern u1="&#x30;" u2="&#x30;" k="-55" />
<hkern u1="&#x30;" u2="&#x2e;" k="412" />
<hkern u1="&#x30;" u2="&#x2c;" k="416" />
<hkern u1="&#x30;" u2="&#x21;" k="92" />
<hkern u1="&#x31;" u2="j" k="47" />
<hkern u1="&#x31;" u2="J" k="47" />
<hkern u1="&#x31;" u2="&#x40;" k="-106" />
<hkern u1="&#x31;" u2="&#x3f;" k="-66" />
<hkern u1="&#x31;" u2="&#x30;" k="-49" />
<hkern u1="&#x31;" u2="&#x2e;" k="100" />
<hkern u1="&#x31;" u2="&#x2c;" k="63" />
<hkern u1="&#x31;" u2="&#x21;" k="100" />
<hkern u1="&#x32;" u2="z" k="51" />
<hkern u1="&#x32;" u2="y" k="150" />
<hkern u1="&#x32;" u2="v" k="88" />
<hkern u1="&#x32;" u2="t" k="53" />
<hkern u1="&#x32;" u2="s" k="53" />
<hkern u1="&#x32;" u2="q" k="133" />
<hkern u1="&#x32;" u2="o" k="133" />
<hkern u1="&#x32;" u2="j" k="215" />
<hkern u1="&#x32;" u2="i" k="53" />
<hkern u1="&#x32;" u2="g" k="190" />
<hkern u1="&#x32;" u2="e" k="190" />
<hkern u1="&#x32;" u2="c" k="190" />
<hkern u1="&#x32;" u2="Z" k="51" />
<hkern u1="&#x32;" u2="Y" k="150" />
<hkern u1="&#x32;" u2="V" k="88" />
<hkern u1="&#x32;" u2="T" k="53" />
<hkern u1="&#x32;" u2="S" k="53" />
<hkern u1="&#x32;" u2="Q" k="133" />
<hkern u1="&#x32;" u2="O" k="133" />
<hkern u1="&#x32;" u2="J" k="215" />
<hkern u1="&#x32;" u2="I" k="53" />
<hkern u1="&#x32;" u2="G" k="190" />
<hkern u1="&#x32;" u2="E" k="190" />
<hkern u1="&#x32;" u2="C" k="190" />
<hkern u1="&#x32;" u2="&#x40;" k="-68" />
<hkern u1="&#x32;" u2="&#x39;" k="141" />
<hkern u1="&#x32;" u2="&#x36;" k="121" />
<hkern u1="&#x32;" u2="&#x34;" k="205" />
<hkern u1="&#x32;" u2="&#x31;" k="205" />
<hkern u1="&#x32;" u2="&#x30;" k="117" />
<hkern u1="&#x32;" u2="&#x2e;" k="102" />
<hkern u1="&#x32;" u2="&#x2c;" k="63" />
<hkern u1="&#x32;" u2="&#x21;" k="139" />
<hkern u1="&#x33;" u2="z" k="57" />
<hkern u1="&#x33;" u2="y" k="55" />
<hkern u1="&#x33;" u2="v" k="41" />
<hkern u1="&#x33;" u2="t" k="240" />
<hkern u1="&#x33;" u2="s" k="59" />
<hkern u1="&#x33;" u2="q" k="43" />
<hkern u1="&#x33;" u2="o" k="43" />
<hkern u1="&#x33;" u2="j" k="96" />
<hkern u1="&#x33;" u2="i" k="240" />
<hkern u1="&#x33;" u2="g" k="72" />
<hkern u1="&#x33;" u2="e" k="72" />
<hkern u1="&#x33;" u2="c" k="72" />
<hkern u1="&#x33;" u2="Z" k="57" />
<hkern u1="&#x33;" u2="Y" k="55" />
<hkern u1="&#x33;" u2="V" k="41" />
<hkern u1="&#x33;" u2="T" k="240" />
<hkern u1="&#x33;" u2="S" k="59" />
<hkern u1="&#x33;" u2="Q" k="43" />
<hkern u1="&#x33;" u2="O" k="43" />
<hkern u1="&#x33;" u2="J" k="96" />
<hkern u1="&#x33;" u2="I" k="240" />
<hkern u1="&#x33;" u2="G" k="72" />
<hkern u1="&#x33;" u2="E" k="72" />
<hkern u1="&#x33;" u2="C" k="72" />
<hkern u1="&#x33;" u2="&#x40;" k="-57" />
<hkern u1="&#x33;" u2="&#x3f;" k="166" />
<hkern u1="&#x33;" u2="&#x39;" k="51" />
<hkern u1="&#x33;" u2="&#x38;" k="211" />
<hkern u1="&#x33;" u2="&#x37;" k="45" />
<hkern u1="&#x33;" u2="&#x35;" k="47" />
<hkern u1="&#x33;" u2="&#x34;" k="84" />
<hkern u1="&#x33;" u2="&#x32;" k="223" />
<hkern u1="&#x33;" u2="&#x31;" k="84" />
<hkern u1="&#x33;" u2="&#x2e;" k="637" />
<hkern u1="&#x33;" u2="&#x2c;" k="825" />
<hkern u1="&#x33;" u2="&#x21;" k="150" />
<hkern u1="&#x34;" u2="j" k="47" />
<hkern u1="&#x34;" u2="J" k="47" />
<hkern u1="&#x34;" u2="&#x40;" k="-106" />
<hkern u1="&#x34;" u2="&#x3f;" k="-66" />
<hkern u1="&#x34;" u2="&#x30;" k="-49" />
<hkern u1="&#x34;" u2="&#x2e;" k="100" />
<hkern u1="&#x34;" u2="&#x2c;" k="63" />
<hkern u1="&#x34;" u2="&#x21;" k="100" />
<hkern u1="&#x35;" u2="j" k="72" />
<hkern u1="&#x35;" u2="g" k="47" />
<hkern u1="&#x35;" u2="e" k="47" />
<hkern u1="&#x35;" u2="c" k="47" />
<hkern u1="&#x35;" u2="J" k="72" />
<hkern u1="&#x35;" u2="G" k="47" />
<hkern u1="&#x35;" u2="E" k="47" />
<hkern u1="&#x35;" u2="C" k="47" />
<hkern u1="&#x35;" u2="&#x40;" k="-84" />
<hkern u1="&#x35;" u2="&#x3f;" k="-43" />
<hkern u1="&#x35;" u2="&#x34;" k="57" />
<hkern u1="&#x35;" u2="&#x31;" k="57" />
<hkern u1="&#x35;" u2="&#x30;" k="-45" />
<hkern u1="&#x35;" u2="&#x2e;" k="340" />
<hkern u1="&#x35;" u2="&#x2c;" k="350" />
<hkern u1="&#x35;" u2="&#x21;" k="123" />
<hkern u1="&#x36;" u2="z" k="279" />
<hkern u1="&#x36;" u2="y" k="281" />
<hkern u1="&#x36;" u2="x" k="254" />
<hkern u1="&#x36;" u2="v" k="158" />
<hkern u1="&#x36;" u2="t" k="303" />
<hkern u1="&#x36;" u2="s" k="63" />
<hkern u1="&#x36;" u2="q" k="45" />
<hkern u1="&#x36;" u2="o" k="45" />
<hkern u1="&#x36;" u2="j" k="98" />
<hkern u1="&#x36;" u2="i" k="303" />
<hkern u1="&#x36;" u2="g" k="74" />
<hkern u1="&#x36;" u2="e" k="74" />
<hkern u1="&#x36;" u2="c" k="74" />
<hkern u1="&#x36;" u2="Z" k="279" />
<hkern u1="&#x36;" u2="Y" k="281" />
<hkern u1="&#x36;" u2="X" k="254" />
<hkern u1="&#x36;" u2="V" k="158" />
<hkern u1="&#x36;" u2="T" k="303" />
<hkern u1="&#x36;" u2="S" k="63" />
<hkern u1="&#x36;" u2="Q" k="45" />
<hkern u1="&#x36;" u2="O" k="45" />
<hkern u1="&#x36;" u2="J" k="98" />
<hkern u1="&#x36;" u2="I" k="303" />
<hkern u1="&#x36;" u2="G" k="74" />
<hkern u1="&#x36;" u2="E" k="74" />
<hkern u1="&#x36;" u2="C" k="74" />
<hkern u1="&#x36;" u2="&#x40;" k="-55" />
<hkern u1="&#x36;" u2="&#x3f;" k="223" />
<hkern u1="&#x36;" u2="&#x39;" k="53" />
<hkern u1="&#x36;" u2="&#x38;" k="131" />
<hkern u1="&#x36;" u2="&#x37;" k="262" />
<hkern u1="&#x36;" u2="&#x35;" k="152" />
<hkern u1="&#x36;" u2="&#x34;" k="86" />
<hkern u1="&#x36;" u2="&#x33;" k="39" />
<hkern u1="&#x36;" u2="&#x32;" k="260" />
<hkern u1="&#x36;" u2="&#x31;" k="86" />
<hkern u1="&#x36;" u2="&#x2e;" k="375" />
<hkern u1="&#x36;" u2="&#x2c;" k="356" />
<hkern u1="&#x36;" u2="&#x21;" k="152" />
<hkern u1="&#x37;" u2="z" k="68" />
<hkern u1="&#x37;" u2="y" k="63" />
<hkern u1="&#x37;" u2="x" k="47" />
<hkern u1="&#x37;" u2="v" k="51" />
<hkern u1="&#x37;" u2="t" k="168" />
<hkern u1="&#x37;" u2="s" k="291" />
<hkern u1="&#x37;" u2="q" k="268" />
<hkern u1="&#x37;" u2="o" k="268" />
<hkern u1="&#x37;" u2="j" k="324" />
<hkern u1="&#x37;" u2="i" k="168" />
<hkern u1="&#x37;" u2="g" k="301" />
<hkern u1="&#x37;" u2="e" k="301" />
<hkern u1="&#x37;" u2="c" k="301" />
<hkern u1="&#x37;" u2="Z" k="68" />
<hkern u1="&#x37;" u2="Y" k="63" />
<hkern u1="&#x37;" u2="X" k="47" />
<hkern u1="&#x37;" u2="V" k="51" />
<hkern u1="&#x37;" u2="T" k="168" />
<hkern u1="&#x37;" u2="S" k="291" />
<hkern u1="&#x37;" u2="Q" k="268" />
<hkern u1="&#x37;" u2="O" k="268" />
<hkern u1="&#x37;" u2="J" k="324" />
<hkern u1="&#x37;" u2="I" k="168" />
<hkern u1="&#x37;" u2="G" k="301" />
<hkern u1="&#x37;" u2="E" k="301" />
<hkern u1="&#x37;" u2="C" k="301" />
<hkern u1="&#x37;" u2="&#x40;" k="49" />
<hkern u1="&#x37;" u2="&#x3f;" k="92" />
<hkern u1="&#x37;" u2="&#x39;" k="279" />
<hkern u1="&#x37;" u2="&#x38;" k="135" />
<hkern u1="&#x37;" u2="&#x37;" k="55" />
<hkern u1="&#x37;" u2="&#x36;" k="258" />
<hkern u1="&#x37;" u2="&#x35;" k="57" />
<hkern u1="&#x37;" u2="&#x34;" k="311" />
<hkern u1="&#x37;" u2="&#x33;" k="45" />
<hkern u1="&#x37;" u2="&#x32;" k="147" />
<hkern u1="&#x37;" u2="&#x31;" k="311" />
<hkern u1="&#x37;" u2="&#x30;" k="225" />
<hkern u1="&#x37;" u2="&#x2e;" k="674" />
<hkern u1="&#x37;" u2="&#x2c;" k="831" />
<hkern u1="&#x37;" u2="&#x21;" k="158" />
<hkern u1="&#x38;" u2="z" k="135" />
<hkern u1="&#x38;" u2="y" k="135" />
<hkern u1="&#x38;" u2="x" k="111" />
<hkern u1="&#x38;" u2="v" k="74" />
<hkern u1="&#x38;" u2="s" k="219" />
<hkern u1="&#x38;" u2="q" k="119" />
<hkern u1="&#x38;" u2="o" k="119" />
<hkern u1="&#x38;" u2="j" k="254" />
<hkern u1="&#x38;" u2="g" k="229" />
<hkern u1="&#x38;" u2="e" k="229" />
<hkern u1="&#x38;" u2="c" k="229" />
<hkern u1="&#x38;" u2="Z" k="135" />
<hkern u1="&#x38;" u2="Y" k="135" />
<hkern u1="&#x38;" u2="X" k="111" />
<hkern u1="&#x38;" u2="V" k="74" />
<hkern u1="&#x38;" u2="S" k="219" />
<hkern u1="&#x38;" u2="Q" k="119" />
<hkern u1="&#x38;" u2="O" k="119" />
<hkern u1="&#x38;" u2="J" k="254" />
<hkern u1="&#x38;" u2="G" k="229" />
<hkern u1="&#x38;" u2="E" k="229" />
<hkern u1="&#x38;" u2="C" k="229" />
<hkern u1="&#x38;" u2="&#x40;" k="-80" />
<hkern u1="&#x38;" u2="&#x39;" k="129" />
<hkern u1="&#x38;" u2="&#x37;" k="121" />
<hkern u1="&#x38;" u2="&#x36;" k="109" />
<hkern u1="&#x38;" u2="&#x34;" k="246" />
<hkern u1="&#x38;" u2="&#x33;" k="199" />
<hkern u1="&#x38;" u2="&#x31;" k="246" />
<hkern u1="&#x38;" u2="&#x30;" k="150" />
<hkern u1="&#x38;" u2="&#x2e;" k="340" />
<hkern u1="&#x38;" u2="&#x2c;" k="350" />
<hkern u1="&#x38;" u2="&#x21;" k="127" />
<hkern u1="&#x39;" u2="z" k="256" />
<hkern u1="&#x39;" u2="y" k="258" />
<hkern u1="&#x39;" u2="x" k="233" />
<hkern u1="&#x39;" u2="v" k="137" />
<hkern u1="&#x39;" u2="t" k="147" />
<hkern u1="&#x39;" u2="s" k="43" />
<hkern u1="&#x39;" u2="j" k="78" />
<hkern u1="&#x39;" u2="i" k="147" />
<hkern u1="&#x39;" u2="g" k="53" />
<hkern u1="&#x39;" u2="e" k="53" />
<hkern u1="&#x39;" u2="c" k="53" />
<hkern u1="&#x39;" u2="Z" k="256" />
<hkern u1="&#x39;" u2="Y" k="258" />
<hkern u1="&#x39;" u2="X" k="233" />
<hkern u1="&#x39;" u2="V" k="137" />
<hkern u1="&#x39;" u2="T" k="147" />
<hkern u1="&#x39;" u2="S" k="43" />
<hkern u1="&#x39;" u2="J" k="78" />
<hkern u1="&#x39;" u2="I" k="147" />
<hkern u1="&#x39;" u2="G" k="53" />
<hkern u1="&#x39;" u2="E" k="53" />
<hkern u1="&#x39;" u2="C" k="53" />
<hkern u1="&#x39;" u2="&#x40;" k="-76" />
<hkern u1="&#x39;" u2="&#x3f;" k="66" />
<hkern u1="&#x39;" u2="&#x38;" k="109" />
<hkern u1="&#x39;" u2="&#x37;" k="242" />
<hkern u1="&#x39;" u2="&#x35;" k="129" />
<hkern u1="&#x39;" u2="&#x34;" k="66" />
<hkern u1="&#x39;" u2="&#x32;" k="121" />
<hkern u1="&#x39;" u2="&#x31;" k="66" />
<hkern u1="&#x39;" u2="&#x2e;" k="375" />
<hkern u1="&#x39;" u2="&#x2c;" k="356" />
<hkern u1="&#x39;" u2="&#x21;" k="131" />
<hkern u1="&#x3f;" u2="z" k="227" />
<hkern u1="&#x3f;" u2="y" k="135" />
<hkern u1="&#x3f;" u2="x" k="115" />
<hkern u1="&#x3f;" u2="v" k="74" />
<hkern u1="&#x3f;" u2="s" k="217" />
<hkern u1="&#x3f;" u2="q" k="117" />
<hkern u1="&#x3f;" u2="o" k="117" />
<hkern u1="&#x3f;" u2="j" k="254" />
<hkern u1="&#x3f;" u2="g" k="227" />
<hkern u1="&#x3f;" u2="e" k="227" />
<hkern u1="&#x3f;" u2="c" k="227" />
<hkern u1="&#x3f;" u2="Z" k="227" />
<hkern u1="&#x3f;" u2="Y" k="135" />
<hkern u1="&#x3f;" u2="X" k="115" />
<hkern u1="&#x3f;" u2="V" k="74" />
<hkern u1="&#x3f;" u2="S" k="217" />
<hkern u1="&#x3f;" u2="Q" k="117" />
<hkern u1="&#x3f;" u2="O" k="117" />
<hkern u1="&#x3f;" u2="J" k="254" />
<hkern u1="&#x3f;" u2="G" k="227" />
<hkern u1="&#x3f;" u2="E" k="227" />
<hkern u1="&#x3f;" u2="C" k="227" />
<hkern u1="&#x3f;" u2="&#x40;" k="-82" />
<hkern u1="&#x3f;" u2="&#x39;" k="127" />
<hkern u1="&#x3f;" u2="&#x37;" k="205" />
<hkern u1="&#x3f;" u2="&#x36;" k="106" />
<hkern u1="&#x3f;" u2="&#x34;" k="244" />
<hkern u1="&#x3f;" u2="&#x33;" k="197" />
<hkern u1="&#x3f;" u2="&#x31;" k="244" />
<hkern u1="&#x3f;" u2="&#x30;" k="147" />
<hkern u1="&#x3f;" u2="&#x2e;" k="371" />
<hkern u1="&#x3f;" u2="&#x2c;" k="332" />
<hkern u1="&#x3f;" u2="&#x21;" k="125" />
<hkern u1="&#x40;" u2="z" k="109" />
<hkern u1="&#x40;" u2="y" k="111" />
<hkern u1="&#x40;" u2="x" k="86" />
<hkern u1="&#x40;" u2="v" k="49" />
<hkern u1="&#x40;" u2="j" k="49" />
<hkern u1="&#x40;" u2="Z" k="109" />
<hkern u1="&#x40;" u2="Y" k="111" />
<hkern u1="&#x40;" u2="X" k="86" />
<hkern u1="&#x40;" u2="V" k="49" />
<hkern u1="&#x40;" u2="J" k="49" />
<hkern u1="&#x40;" u2="&#x40;" k="-104" />
<hkern u1="&#x40;" u2="&#x3f;" k="-63" />
<hkern u1="&#x40;" u2="&#x37;" k="94" />
<hkern u1="&#x40;" u2="&#x30;" k="-63" />
<hkern u1="&#x40;" u2="&#x2e;" k="324" />
<hkern u1="&#x40;" u2="&#x2c;" k="334" />
<hkern u1="&#x40;" u2="&#x21;" k="102" />
<hkern u1="A" u2="y" k="172" />
<hkern u1="A" u2="v" k="76" />
<hkern u1="A" u2="t" k="113" />
<hkern u1="A" u2="j" k="43" />
<hkern u1="A" u2="i" k="113" />
<hkern u1="A" u2="Y" k="172" />
<hkern u1="A" u2="V" k="76" />
<hkern u1="A" u2="T" k="113" />
<hkern u1="A" u2="J" k="43" />
<hkern u1="A" u2="I" k="113" />
<hkern u1="A" u2="&#x40;" k="-115" />
<hkern u1="A" u2="&#x30;" k="-72" />
<hkern u1="A" u2="&#x2e;" k="68" />
<hkern u1="A" u2="&#x21;" k="92" />
<hkern u1="B" u2="z" k="135" />
<hkern u1="B" u2="y" k="135" />
<hkern u1="B" u2="x" k="111" />
<hkern u1="B" u2="v" k="74" />
<hkern u1="B" u2="s" k="221" />
<hkern u1="B" u2="q" k="119" />
<hkern u1="B" u2="o" k="119" />
<hkern u1="B" u2="j" k="262" />
<hkern u1="B" u2="g" k="231" />
<hkern u1="B" u2="e" k="231" />
<hkern u1="B" u2="c" k="231" />
<hkern u1="B" u2="Z" k="135" />
<hkern u1="B" u2="Y" k="135" />
<hkern u1="B" u2="X" k="111" />
<hkern u1="B" u2="V" k="74" />
<hkern u1="B" u2="S" k="221" />
<hkern u1="B" u2="Q" k="119" />
<hkern u1="B" u2="O" k="119" />
<hkern u1="B" u2="J" k="262" />
<hkern u1="B" u2="G" k="231" />
<hkern u1="B" u2="E" k="231" />
<hkern u1="B" u2="C" k="231" />
<hkern u1="B" u2="&#x40;" k="-84" />
<hkern u1="B" u2="&#x39;" k="125" />
<hkern u1="B" u2="&#x37;" k="121" />
<hkern u1="B" u2="&#x36;" k="104" />
<hkern u1="B" u2="&#x34;" k="244" />
<hkern u1="B" u2="&#x33;" k="199" />
<hkern u1="B" u2="&#x31;" k="244" />
<hkern u1="B" u2="&#x30;" k="143" />
<hkern u1="B" u2="&#x2e;" k="510" />
<hkern u1="B" u2="&#x2c;" k="526" />
<hkern u1="B" u2="&#x21;" k="123" />
<hkern u1="C" u2="t" k="201" />
<hkern u1="C" u2="q" k="219" />
<hkern u1="C" u2="o" k="219" />
<hkern u1="C" u2="j" k="475" />
<hkern u1="C" u2="i" k="201" />
<hkern u1="C" u2="g" k="453" />
<hkern u1="C" u2="e" k="453" />
<hkern u1="C" u2="c" k="453" />
<hkern u1="C" u2="T" k="201" />
<hkern u1="C" u2="Q" k="219" />
<hkern u1="C" u2="O" k="219" />
<hkern u1="C" u2="J" k="475" />
<hkern u1="C" u2="I" k="201" />
<hkern u1="C" u2="G" k="453" />
<hkern u1="C" u2="E" k="453" />
<hkern u1="C" u2="C" k="453" />
<hkern u1="C" u2="&#x40;" k="76" />
<hkern u1="C" u2="&#x3f;" k="129" />
<hkern u1="C" u2="&#x39;" k="229" />
<hkern u1="C" u2="&#x38;" k="162" />
<hkern u1="C" u2="&#x36;" k="203" />
<hkern u1="C" u2="&#x34;" k="457" />
<hkern u1="C" u2="&#x31;" k="459" />
<hkern u1="C" u2="&#x30;" k="393" />
<hkern u1="C" u2="&#x2e;" k="55" />
<hkern u1="C" u2="&#x21;" k="104" />
<hkern u1="D" u2="z" k="229" />
<hkern u1="D" u2="y" k="229" />
<hkern u1="D" u2="x" k="207" />
<hkern u1="D" u2="v" k="109" />
<hkern u1="D" u2="t" k="205" />
<hkern u1="D" u2="j" k="49" />
<hkern u1="D" u2="i" k="205" />
<hkern u1="D" u2="Z" k="229" />
<hkern u1="D" u2="Y" k="229" />
<hkern u1="D" u2="X" k="207" />
<hkern u1="D" u2="V" k="109" />
<hkern u1="D" u2="T" k="205" />
<hkern u1="D" u2="J" k="49" />
<hkern u1="D" u2="I" k="205" />
<hkern u1="D" u2="&#x40;" k="-104" />
<hkern u1="D" u2="&#x3f;" k="123" />
<hkern u1="D" u2="&#x38;" k="164" />
<hkern u1="D" u2="&#x37;" k="215" />
<hkern u1="D" u2="&#x35;" k="186" />
<hkern u1="D" u2="&#x32;" k="178" />
<hkern u1="D" u2="&#x30;" k="-74" />
<hkern u1="D" u2="&#x2e;" k="580" />
<hkern u1="D" u2="&#x2c;" k="768" />
<hkern u1="D" u2="&#x21;" k="102" />
<hkern u1="E" u2="t" k="199" />
<hkern u1="E" u2="j" k="51" />
<hkern u1="E" u2="i" k="199" />
<hkern u1="E" u2="T" k="199" />
<hkern u1="E" u2="J" k="51" />
<hkern u1="E" u2="I" k="199" />
<hkern u1="E" u2="&#x40;" k="-104" />
<hkern u1="E" u2="&#x3f;" k="125" />
<hkern u1="E" u2="&#x38;" k="158" />
<hkern u1="E" u2="&#x2e;" k="63" />
<hkern u1="E" u2="&#x21;" k="102" />
<hkern u1="F" u2="z" k="125" />
<hkern u1="F" u2="y" k="178" />
<hkern u1="F" u2="x" k="100" />
<hkern u1="F" u2="v" k="82" />
<hkern u1="F" u2="t" k="119" />
<hkern u1="F" u2="s" k="61" />
<hkern u1="F" u2="j" k="121" />
<hkern u1="F" u2="i" k="119" />
<hkern u1="F" u2="g" k="70" />
<hkern u1="F" u2="e" k="70" />
<hkern u1="F" u2="c" k="70" />
<hkern u1="F" u2="Z" k="125" />
<hkern u1="F" u2="Y" k="178" />
<hkern u1="F" u2="X" k="100" />
<hkern u1="F" u2="V" k="82" />
<hkern u1="F" u2="T" k="119" />
<hkern u1="F" u2="S" k="61" />
<hkern u1="F" u2="J" k="121" />
<hkern u1="F" u2="I" k="119" />
<hkern u1="F" u2="G" k="70" />
<hkern u1="F" u2="E" k="70" />
<hkern u1="F" u2="C" k="70" />
<hkern u1="F" u2="&#x40;" k="-109" />
<hkern u1="F" u2="&#x37;" k="111" />
<hkern u1="F" u2="&#x34;" k="82" />
<hkern u1="F" u2="&#x32;" k="90" />
<hkern u1="F" u2="&#x31;" k="82" />
<hkern u1="F" u2="&#x2e;" k="633" />
<hkern u1="F" u2="&#x2c;" k="774" />
<hkern u1="F" u2="&#x21;" k="98" />
<hkern u1="G" u2="t" k="205" />
<hkern u1="G" u2="j" k="57" />
<hkern u1="G" u2="i" k="205" />
<hkern u1="G" u2="T" k="205" />
<hkern u1="G" u2="J" k="57" />
<hkern u1="G" u2="I" k="205" />
<hkern u1="G" u2="&#x40;" k="-98" />
<hkern u1="G" u2="&#x3f;" k="131" />
<hkern u1="G" u2="&#x34;" k="43" />
<hkern u1="G" u2="&#x31;" k="43" />
<hkern u1="G" u2="&#x2e;" k="88" />
<hkern u1="G" u2="&#x2c;" k="57" />
<hkern u1="G" u2="&#x21;" k="109" />
<hkern u1="H" u2="j" k="51" />
<hkern u1="H" u2="J" k="51" />
<hkern u1="H" u2="&#x40;" k="-104" />
<hkern u1="H" u2="&#x3f;" k="-63" />
<hkern u1="H" u2="&#x30;" k="-49" />
<hkern u1="H" u2="&#x2e;" k="100" />
<hkern u1="H" u2="&#x2c;" k="70" />
<hkern u1="H" u2="&#x21;" k="102" />
<hkern u1="I" u2="z" k="131" />
<hkern u1="I" u2="y" k="264" />
<hkern u1="I" u2="x" k="106" />
<hkern u1="I" u2="v" k="184" />
<hkern u1="I" u2="t" k="270" />
<hkern u1="I" u2="s" k="219" />
<hkern u1="I" u2="q" k="117" />
<hkern u1="I" u2="o" k="117" />
<hkern u1="I" u2="j" k="256" />
<hkern u1="I" u2="i" k="270" />
<hkern u1="I" u2="g" k="231" />
<hkern u1="I" u2="e" k="231" />
<hkern u1="I" u2="c" k="231" />
<hkern u1="I" u2="Z" k="131" />
<hkern u1="I" u2="Y" k="264" />
<hkern u1="I" u2="X" k="106" />
<hkern u1="I" u2="V" k="184" />
<hkern u1="I" u2="T" k="270" />
<hkern u1="I" u2="S" k="219" />
<hkern u1="I" u2="Q" k="117" />
<hkern u1="I" u2="O" k="117" />
<hkern u1="I" u2="J" k="256" />
<hkern u1="I" u2="I" k="270" />
<hkern u1="I" u2="G" k="231" />
<hkern u1="I" u2="E" k="231" />
<hkern u1="I" u2="C" k="231" />
<hkern u1="I" u2="&#x40;" k="-88" />
<hkern u1="I" u2="&#x3f;" k="190" />
<hkern u1="I" u2="&#x39;" k="260" />
<hkern u1="I" u2="&#x37;" k="117" />
<hkern u1="I" u2="&#x36;" k="98" />
<hkern u1="I" u2="&#x34;" k="291" />
<hkern u1="I" u2="&#x33;" k="197" />
<hkern u1="I" u2="&#x32;" k="143" />
<hkern u1="I" u2="&#x31;" k="291" />
<hkern u1="I" u2="&#x30;" k="152" />
<hkern u1="I" u2="&#x2e;" k="313" />
<hkern u1="I" u2="&#x2c;" k="328" />
<hkern u1="I" u2="&#x21;" k="119" />
<hkern u1="J" u2="j" k="51" />
<hkern u1="J" u2="J" k="51" />
<hkern u1="J" u2="&#x40;" k="-104" />
<hkern u1="J" u2="&#x3f;" k="-63" />
<hkern u1="J" u2="&#x30;" k="-49" />
<hkern u1="J" u2="&#x2e;" k="100" />
<hkern u1="J" u2="&#x2c;" k="70" />
<hkern u1="J" u2="&#x21;" k="102" />
<hkern u1="K" u2="t" k="203" />
<hkern u1="K" u2="q" k="219" />
<hkern u1="K" u2="o" k="219" />
<hkern u1="K" u2="j" k="477" />
<hkern u1="K" u2="i" k="203" />
<hkern u1="K" u2="g" k="453" />
<hkern u1="K" u2="e" k="453" />
<hkern u1="K" u2="c" k="453" />
<hkern u1="K" u2="T" k="203" />
<hkern u1="K" u2="Q" k="219" />
<hkern u1="K" u2="O" k="219" />
<hkern u1="K" u2="J" k="477" />
<hkern u1="K" u2="I" k="203" />
<hkern u1="K" u2="G" k="453" />
<hkern u1="K" u2="E" k="453" />
<hkern u1="K" u2="C" k="453" />
<hkern u1="K" u2="&#x40;" k="76" />
<hkern u1="K" u2="&#x3f;" k="129" />
<hkern u1="K" u2="&#x39;" k="229" />
<hkern u1="K" u2="&#x38;" k="162" />
<hkern u1="K" u2="&#x36;" k="203" />
<hkern u1="K" u2="&#x34;" k="459" />
<hkern u1="K" u2="&#x31;" k="459" />
<hkern u1="K" u2="&#x30;" k="393" />
<hkern u1="K" u2="&#x2e;" k="57" />
<hkern u1="K" u2="&#x21;" k="106" />
<hkern u1="L" u2="z" k="231" />
<hkern u1="L" u2="y" k="229" />
<hkern u1="L" u2="x" k="211" />
<hkern u1="L" u2="v" k="109" />
<hkern u1="L" u2="t" k="254" />
<hkern u1="L" u2="j" k="51" />
<hkern u1="L" u2="i" k="254" />
<hkern u1="L" u2="Z" k="231" />
<hkern u1="L" u2="Y" k="229" />
<hkern u1="L" u2="X" k="211" />
<hkern u1="L" u2="V" k="109" />
<hkern u1="L" u2="T" k="254" />
<hkern u1="L" u2="J" k="51" />
<hkern u1="L" u2="I" k="254" />
<hkern u1="L" u2="&#x40;" k="-104" />
<hkern u1="L" u2="&#x3f;" k="174" />
<hkern u1="L" u2="&#x38;" k="158" />
<hkern u1="L" u2="&#x37;" k="219" />
<hkern u1="L" u2="&#x35;" k="193" />
<hkern u1="L" u2="&#x32;" k="285" />
<hkern u1="L" u2="&#x30;" k="-63" />
<hkern u1="L" u2="&#x2e;" k="559" />
<hkern u1="L" u2="&#x2c;" k="745" />
<hkern u1="L" u2="&#x21;" k="102" />
<hkern u1="M" u2="j" k="51" />
<hkern u1="M" u2="J" k="51" />
<hkern u1="M" u2="&#x40;" k="-104" />
<hkern u1="M" u2="&#x3f;" k="-63" />
<hkern u1="M" u2="&#x30;" k="-49" />
<hkern u1="M" u2="&#x2e;" k="100" />
<hkern u1="M" u2="&#x2c;" k="70" />
<hkern u1="M" u2="&#x21;" k="102" />
<hkern u1="N" u2="j" k="53" />
<hkern u1="N" u2="J" k="53" />
<hkern u1="N" u2="&#x40;" k="-104" />
<hkern u1="N" u2="&#x3f;" k="-63" />
<hkern u1="N" u2="&#x30;" k="-49" />
<hkern u1="N" u2="&#x2e;" k="100" />
<hkern u1="N" u2="&#x2c;" k="70" />
<hkern u1="N" u2="&#x21;" k="102" />
<hkern u1="O" u2="z" k="229" />
<hkern u1="O" u2="y" k="225" />
<hkern u1="O" u2="x" k="207" />
<hkern u1="O" u2="v" k="106" />
<hkern u1="O" u2="t" k="117" />
<hkern u1="O" u2="j" k="49" />
<hkern u1="O" u2="i" k="117" />
<hkern u1="O" u2="Z" k="229" />
<hkern u1="O" u2="Y" k="225" />
<hkern u1="O" u2="X" k="207" />
<hkern u1="O" u2="V" k="106" />
<hkern u1="O" u2="T" k="117" />
<hkern u1="O" u2="J" k="49" />
<hkern u1="O" u2="I" k="117" />
<hkern u1="O" u2="&#x40;" k="-106" />
<hkern u1="O" u2="&#x38;" k="74" />
<hkern u1="O" u2="&#x37;" k="215" />
<hkern u1="O" u2="&#x35;" k="96" />
<hkern u1="O" u2="&#x32;" k="88" />
<hkern u1="O" u2="&#x30;" k="-61" />
<hkern u1="O" u2="&#x2e;" k="346" />
<hkern u1="O" u2="&#x2c;" k="332" />
<hkern u1="O" u2="&#x21;" k="100" />
<hkern u1="P" u2="z" k="369" />
<hkern u1="P" u2="y" k="135" />
<hkern u1="P" u2="x" k="115" />
<hkern u1="P" u2="v" k="74" />
<hkern u1="P" u2="s" k="223" />
<hkern u1="P" u2="q" k="119" />
<hkern u1="P" u2="o" k="119" />
<hkern u1="P" u2="j" k="403" />
<hkern u1="P" u2="g" k="231" />
<hkern u1="P" u2="e" k="231" />
<hkern u1="P" u2="c" k="231" />
<hkern u1="P" u2="Z" k="369" />
<hkern u1="P" u2="Y" k="135" />
<hkern u1="P" u2="X" k="115" />
<hkern u1="P" u2="V" k="74" />
<hkern u1="P" u2="S" k="223" />
<hkern u1="P" u2="Q" k="119" />
<hkern u1="P" u2="O" k="119" />
<hkern u1="P" u2="J" k="403" />
<hkern u1="P" u2="G" k="231" />
<hkern u1="P" u2="E" k="231" />
<hkern u1="P" u2="C" k="231" />
<hkern u1="P" u2="&#x40;" k="-82" />
<hkern u1="P" u2="&#x39;" k="127" />
<hkern u1="P" u2="&#x37;" k="348" />
<hkern u1="P" u2="&#x36;" k="106" />
<hkern u1="P" u2="&#x34;" k="246" />
<hkern u1="P" u2="&#x33;" k="201" />
<hkern u1="P" u2="&#x31;" k="246" />
<hkern u1="P" u2="&#x30;" k="158" />
<hkern u1="P" u2="&#x2e;" k="633" />
<hkern u1="P" u2="&#x2c;" k="772" />
<hkern u1="P" u2="&#x21;" k="125" />
<hkern u1="Q" u2="y" k="225" />
<hkern u1="Q" u2="v" k="106" />
<hkern u1="Q" u2="t" k="117" />
<hkern u1="Q" u2="j" k="49" />
<hkern u1="Q" u2="i" k="117" />
<hkern u1="Q" u2="Y" k="225" />
<hkern u1="Q" u2="V" k="106" />
<hkern u1="Q" u2="T" k="117" />
<hkern u1="Q" u2="J" k="49" />
<hkern u1="Q" u2="I" k="117" />
<hkern u1="Q" u2="&#x40;" k="-106" />
<hkern u1="Q" u2="&#x38;" k="74" />
<hkern u1="Q" u2="&#x35;" k="96" />
<hkern u1="Q" u2="&#x30;" k="-53" />
<hkern u1="Q" u2="&#x2e;" k="78" />
<hkern u1="Q" u2="&#x2c;" k="49" />
<hkern u1="Q" u2="&#x21;" k="100" />
<hkern u1="R" u2="y" k="117" />
<hkern u1="R" u2="v" k="55" />
<hkern u1="R" u2="q" k="100" />
<hkern u1="R" u2="o" k="100" />
<hkern u1="R" u2="j" k="385" />
<hkern u1="R" u2="g" k="213" />
<hkern u1="R" u2="e" k="213" />
<hkern u1="R" u2="c" k="213" />
<hkern u1="R" u2="Y" k="117" />
<hkern u1="R" u2="V" k="55" />
<hkern u1="R" u2="Q" k="100" />
<hkern u1="R" u2="O" k="100" />
<hkern u1="R" u2="J" k="385" />
<hkern u1="R" u2="G" k="213" />
<hkern u1="R" u2="E" k="213" />
<hkern u1="R" u2="C" k="213" />
<hkern u1="R" u2="&#x40;" k="-102" />
<hkern u1="R" u2="&#x3f;" k="-59" />
<hkern u1="R" u2="&#x39;" k="109" />
<hkern u1="R" u2="&#x36;" k="86" />
<hkern u1="R" u2="&#x34;" k="227" />
<hkern u1="R" u2="&#x31;" k="227" />
<hkern u1="R" u2="&#x30;" k="150" />
<hkern u1="R" u2="&#x2e;" k="57" />
<hkern u1="R" u2="&#x21;" k="104" />
<hkern u1="S" u2="t" k="197" />
<hkern u1="S" u2="j" k="49" />
<hkern u1="S" u2="i" k="197" />
<hkern u1="S" u2="T" k="197" />
<hkern u1="S" u2="J" k="49" />
<hkern u1="S" u2="I" k="197" />
<hkern u1="S" u2="&#x40;" k="-104" />
<hkern u1="S" u2="&#x3f;" k="123" />
<hkern u1="S" u2="&#x38;" k="162" />
<hkern u1="S" u2="&#x32;" k="180" />
<hkern u1="S" u2="&#x30;" k="-51" />
<hkern u1="S" u2="&#x2e;" k="590" />
<hkern u1="S" u2="&#x2c;" k="778" />
<hkern u1="S" u2="&#x21;" k="102" />
<hkern u1="T" u2="z" k="190" />
<hkern u1="T" u2="y" k="98" />
<hkern u1="T" u2="x" k="80" />
<hkern u1="T" u2="s" k="195" />
<hkern u1="T" u2="q" k="90" />
<hkern u1="T" u2="o" k="90" />
<hkern u1="T" u2="j" k="281" />
<hkern u1="T" u2="g" k="203" />
<hkern u1="T" u2="e" k="203" />
<hkern u1="T" u2="c" k="203" />
<hkern u1="T" u2="Z" k="190" />
<hkern u1="T" u2="Y" k="98" />
<hkern u1="T" u2="X" k="80" />
<hkern u1="T" u2="S" k="195" />
<hkern u1="T" u2="Q" k="90" />
<hkern u1="T" u2="O" k="90" />
<hkern u1="T" u2="J" k="281" />
<hkern u1="T" u2="G" k="203" />
<hkern u1="T" u2="E" k="203" />
<hkern u1="T" u2="C" k="203" />
<hkern u1="T" u2="&#x40;" k="-115" />
<hkern u1="T" u2="&#x3f;" k="-72" />
<hkern u1="T" u2="&#x39;" k="98" />
<hkern u1="T" u2="&#x37;" k="170" />
<hkern u1="T" u2="&#x36;" k="78" />
<hkern u1="T" u2="&#x34;" k="217" />
<hkern u1="T" u2="&#x33;" k="160" />
<hkern u1="T" u2="&#x31;" k="217" />
<hkern u1="T" u2="&#x30;" k="137" />
<hkern u1="T" u2="&#x2e;" k="340" />
<hkern u1="T" u2="&#x2c;" k="311" />
<hkern u1="T" u2="&#x21;" k="92" />
<hkern u1="U" u2="j" k="51" />
<hkern u1="U" u2="J" k="51" />
<hkern u1="U" u2="&#x40;" k="-104" />
<hkern u1="U" u2="&#x3f;" k="-63" />
<hkern u1="U" u2="&#x30;" k="-61" />
<hkern u1="U" u2="&#x2e;" k="526" />
<hkern u1="U" u2="&#x2c;" k="543" />
<hkern u1="U" u2="&#x21;" k="102" />
<hkern u1="V" u2="t" k="78" />
<hkern u1="V" u2="s" k="139" />
<hkern u1="V" u2="q" k="121" />
<hkern u1="V" u2="o" k="121" />
<hkern u1="V" u2="j" k="172" />
<hkern u1="V" u2="i" k="78" />
<hkern u1="V" u2="g" k="150" />
<hkern u1="V" u2="e" k="150" />
<hkern u1="V" u2="c" k="150" />
<hkern u1="V" u2="T" k="78" />
<hkern u1="V" u2="S" k="139" />
<hkern u1="V" u2="Q" k="121" />
<hkern u1="V" u2="O" k="121" />
<hkern u1="V" u2="J" k="172" />
<hkern u1="V" u2="I" k="78" />
<hkern u1="V" u2="G" k="150" />
<hkern u1="V" u2="E" k="150" />
<hkern u1="V" u2="C" k="150" />
<hkern u1="V" u2="&#x39;" k="129" />
<hkern u1="V" u2="&#x38;" k="43" />
<hkern u1="V" u2="&#x36;" k="106" />
<hkern u1="V" u2="&#x34;" k="160" />
<hkern u1="V" u2="&#x32;" k="57" />
<hkern u1="V" u2="&#x31;" k="160" />
<hkern u1="V" u2="&#x30;" k="74" />
<hkern u1="V" u2="&#x2e;" k="373" />
<hkern u1="V" u2="&#x2c;" k="348" />
<hkern u1="V" u2="&#x21;" k="113" />
<hkern u1="W" u2="j" k="51" />
<hkern u1="W" u2="J" k="51" />
<hkern u1="W" u2="&#x40;" k="-104" />
<hkern u1="W" u2="&#x3f;" k="-63" />
<hkern u1="W" u2="&#x30;" k="-49" />
<hkern u1="W" u2="&#x2e;" k="100" />
<hkern u1="W" u2="&#x2c;" k="70" />
<hkern u1="W" u2="&#x21;" k="102" />
<hkern u1="X" u2="t" k="102" />
<hkern u1="X" u2="q" k="205" />
<hkern u1="X" u2="o" k="205" />
<hkern u1="X" u2="j" k="262" />
<hkern u1="X" u2="i" k="102" />
<hkern u1="X" u2="g" k="238" />
<hkern u1="X" u2="e" k="238" />
<hkern u1="X" u2="c" k="238" />
<hkern u1="X" u2="T" k="102" />
<hkern u1="X" u2="Q" k="205" />
<hkern u1="X" u2="O" k="205" />
<hkern u1="X" u2="J" k="262" />
<hkern u1="X" u2="I" k="102" />
<hkern u1="X" u2="G" k="238" />
<hkern u1="X" u2="E" k="238" />
<hkern u1="X" u2="C" k="238" />
<hkern u1="X" u2="&#x39;" k="213" />
<hkern u1="X" u2="&#x38;" k="66" />
<hkern u1="X" u2="&#x36;" k="186" />
<hkern u1="X" u2="&#x34;" k="244" />
<hkern u1="X" u2="&#x31;" k="244" />
<hkern u1="X" u2="&#x30;" k="170" />
<hkern u1="X" u2="&#x2e;" k="68" />
<hkern u1="X" u2="&#x21;" k="92" />
<hkern u1="Y" u2="t" k="111" />
<hkern u1="Y" u2="s" k="233" />
<hkern u1="Y" u2="q" k="211" />
<hkern u1="Y" u2="o" k="211" />
<hkern u1="Y" u2="j" k="266" />
<hkern u1="Y" u2="i" k="111" />
<hkern u1="Y" u2="g" k="244" />
<hkern u1="Y" u2="e" k="244" />
<hkern u1="Y" u2="c" k="244" />
<hkern u1="Y" u2="T" k="111" />
<hkern u1="Y" u2="S" k="233" />
<hkern u1="Y" u2="Q" k="211" />
<hkern u1="Y" u2="O" k="211" />
<hkern u1="Y" u2="J" k="266" />
<hkern u1="Y" u2="I" k="111" />
<hkern u1="Y" u2="G" k="244" />
<hkern u1="Y" u2="E" k="244" />
<hkern u1="Y" u2="C" k="244" />
<hkern u1="Y" u2="&#x39;" k="221" />
<hkern u1="Y" u2="&#x38;" k="78" />
<hkern u1="Y" u2="&#x36;" k="199" />
<hkern u1="Y" u2="&#x34;" k="254" />
<hkern u1="Y" u2="&#x32;" k="90" />
<hkern u1="Y" u2="&#x31;" k="254" />
<hkern u1="Y" u2="&#x30;" k="174" />
<hkern u1="Y" u2="&#x2e;" k="352" />
<hkern u1="Y" u2="&#x2c;" k="322" />
<hkern u1="Y" u2="&#x21;" k="98" />
<hkern u1="Z" u2="t" k="111" />
<hkern u1="Z" u2="q" k="211" />
<hkern u1="Z" u2="o" k="211" />
<hkern u1="Z" u2="j" k="266" />
<hkern u1="Z" u2="i" k="111" />
<hkern u1="Z" u2="g" k="244" />
<hkern u1="Z" u2="e" k="244" />
<hkern u1="Z" u2="c" k="244" />
<hkern u1="Z" u2="T" k="111" />
<hkern u1="Z" u2="Q" k="211" />
<hkern u1="Z" u2="O" k="211" />
<hkern u1="Z" u2="J" k="266" />
<hkern u1="Z" u2="I" k="111" />
<hkern u1="Z" u2="G" k="244" />
<hkern u1="Z" u2="E" k="244" />
<hkern u1="Z" u2="C" k="244" />
<hkern u1="Z" u2="&#x39;" k="221" />
<hkern u1="Z" u2="&#x38;" k="78" />
<hkern u1="Z" u2="&#x36;" k="195" />
<hkern u1="Z" u2="&#x34;" k="254" />
<hkern u1="Z" u2="&#x31;" k="254" />
<hkern u1="Z" u2="&#x30;" k="180" />
<hkern u1="Z" u2="&#x2e;" k="51" />
<hkern u1="Z" u2="&#x21;" k="98" />
<hkern u1="a" u2="y" k="172" />
<hkern u1="a" u2="v" k="76" />
<hkern u1="a" u2="t" k="113" />
<hkern u1="a" u2="j" k="43" />
<hkern u1="a" u2="i" k="113" />
<hkern u1="a" u2="Y" k="172" />
<hkern u1="a" u2="V" k="76" />
<hkern u1="a" u2="T" k="113" />
<hkern u1="a" u2="J" k="43" />
<hkern u1="a" u2="I" k="113" />
<hkern u1="a" u2="&#x40;" k="-115" />
<hkern u1="a" u2="&#x30;" k="-72" />
<hkern u1="a" u2="&#x2e;" k="68" />
<hkern u1="a" u2="&#x21;" k="92" />
<hkern u1="b" u2="z" k="135" />
<hkern u1="b" u2="y" k="135" />
<hkern u1="b" u2="x" k="111" />
<hkern u1="b" u2="v" k="74" />
<hkern u1="b" u2="s" k="221" />
<hkern u1="b" u2="q" k="119" />
<hkern u1="b" u2="o" k="119" />
<hkern u1="b" u2="j" k="262" />
<hkern u1="b" u2="g" k="231" />
<hkern u1="b" u2="e" k="231" />
<hkern u1="b" u2="c" k="231" />
<hkern u1="b" u2="Z" k="135" />
<hkern u1="b" u2="Y" k="135" />
<hkern u1="b" u2="X" k="111" />
<hkern u1="b" u2="V" k="74" />
<hkern u1="b" u2="S" k="221" />
<hkern u1="b" u2="Q" k="119" />
<hkern u1="b" u2="O" k="119" />
<hkern u1="b" u2="J" k="262" />
<hkern u1="b" u2="G" k="231" />
<hkern u1="b" u2="E" k="231" />
<hkern u1="b" u2="C" k="231" />
<hkern u1="b" u2="&#x40;" k="-84" />
<hkern u1="b" u2="&#x39;" k="125" />
<hkern u1="b" u2="&#x37;" k="121" />
<hkern u1="b" u2="&#x36;" k="104" />
<hkern u1="b" u2="&#x34;" k="244" />
<hkern u1="b" u2="&#x33;" k="199" />
<hkern u1="b" u2="&#x31;" k="244" />
<hkern u1="b" u2="&#x30;" k="143" />
<hkern u1="b" u2="&#x2e;" k="510" />
<hkern u1="b" u2="&#x2c;" k="526" />
<hkern u1="b" u2="&#x21;" k="123" />
<hkern u1="c" u2="t" k="201" />
<hkern u1="c" u2="q" k="219" />
<hkern u1="c" u2="o" k="219" />
<hkern u1="c" u2="j" k="475" />
<hkern u1="c" u2="i" k="201" />
<hkern u1="c" u2="g" k="453" />
<hkern u1="c" u2="e" k="453" />
<hkern u1="c" u2="c" k="453" />
<hkern u1="c" u2="T" k="201" />
<hkern u1="c" u2="Q" k="219" />
<hkern u1="c" u2="O" k="219" />
<hkern u1="c" u2="J" k="475" />
<hkern u1="c" u2="I" k="201" />
<hkern u1="c" u2="G" k="453" />
<hkern u1="c" u2="E" k="453" />
<hkern u1="c" u2="C" k="453" />
<hkern u1="c" u2="&#x40;" k="76" />
<hkern u1="c" u2="&#x3f;" k="129" />
<hkern u1="c" u2="&#x39;" k="229" />
<hkern u1="c" u2="&#x38;" k="162" />
<hkern u1="c" u2="&#x36;" k="203" />
<hkern u1="c" u2="&#x34;" k="457" />
<hkern u1="c" u2="&#x31;" k="459" />
<hkern u1="c" u2="&#x30;" k="393" />
<hkern u1="c" u2="&#x2e;" k="55" />
<hkern u1="c" u2="&#x21;" k="104" />
<hkern u1="d" u2="z" k="229" />
<hkern u1="d" u2="y" k="229" />
<hkern u1="d" u2="x" k="207" />
<hkern u1="d" u2="v" k="109" />
<hkern u1="d" u2="t" k="205" />
<hkern u1="d" u2="j" k="49" />
<hkern u1="d" u2="i" k="205" />
<hkern u1="d" u2="Z" k="229" />
<hkern u1="d" u2="Y" k="229" />
<hkern u1="d" u2="X" k="207" />
<hkern u1="d" u2="V" k="109" />
<hkern u1="d" u2="T" k="205" />
<hkern u1="d" u2="J" k="49" />
<hkern u1="d" u2="I" k="205" />
<hkern u1="d" u2="&#x40;" k="-104" />
<hkern u1="d" u2="&#x3f;" k="123" />
<hkern u1="d" u2="&#x38;" k="164" />
<hkern u1="d" u2="&#x37;" k="215" />
<hkern u1="d" u2="&#x35;" k="186" />
<hkern u1="d" u2="&#x32;" k="178" />
<hkern u1="d" u2="&#x30;" k="-74" />
<hkern u1="d" u2="&#x2e;" k="580" />
<hkern u1="d" u2="&#x2c;" k="768" />
<hkern u1="d" u2="&#x21;" k="102" />
<hkern u1="e" u2="t" k="199" />
<hkern u1="e" u2="j" k="51" />
<hkern u1="e" u2="i" k="199" />
<hkern u1="e" u2="T" k="199" />
<hkern u1="e" u2="J" k="51" />
<hkern u1="e" u2="I" k="199" />
<hkern u1="e" u2="&#x40;" k="-104" />
<hkern u1="e" u2="&#x3f;" k="125" />
<hkern u1="e" u2="&#x38;" k="158" />
<hkern u1="e" u2="&#x2e;" k="63" />
<hkern u1="e" u2="&#x21;" k="102" />
<hkern u1="f" u2="z" k="125" />
<hkern u1="f" u2="y" k="178" />
<hkern u1="f" u2="x" k="100" />
<hkern u1="f" u2="v" k="82" />
<hkern u1="f" u2="t" k="119" />
<hkern u1="f" u2="s" k="61" />
<hkern u1="f" u2="j" k="121" />
<hkern u1="f" u2="i" k="119" />
<hkern u1="f" u2="g" k="70" />
<hkern u1="f" u2="e" k="70" />
<hkern u1="f" u2="c" k="70" />
<hkern u1="f" u2="Z" k="125" />
<hkern u1="f" u2="Y" k="178" />
<hkern u1="f" u2="X" k="100" />
<hkern u1="f" u2="V" k="82" />
<hkern u1="f" u2="T" k="119" />
<hkern u1="f" u2="S" k="61" />
<hkern u1="f" u2="J" k="121" />
<hkern u1="f" u2="I" k="119" />
<hkern u1="f" u2="G" k="70" />
<hkern u1="f" u2="E" k="70" />
<hkern u1="f" u2="C" k="70" />
<hkern u1="f" u2="&#x40;" k="-109" />
<hkern u1="f" u2="&#x37;" k="111" />
<hkern u1="f" u2="&#x34;" k="82" />
<hkern u1="f" u2="&#x32;" k="90" />
<hkern u1="f" u2="&#x31;" k="82" />
<hkern u1="f" u2="&#x2e;" k="633" />
<hkern u1="f" u2="&#x2c;" k="774" />
<hkern u1="f" u2="&#x21;" k="98" />
<hkern u1="g" u2="t" k="205" />
<hkern u1="g" u2="j" k="57" />
<hkern u1="g" u2="i" k="205" />
<hkern u1="g" u2="T" k="205" />
<hkern u1="g" u2="J" k="57" />
<hkern u1="g" u2="I" k="205" />
<hkern u1="g" u2="&#x40;" k="-98" />
<hkern u1="g" u2="&#x3f;" k="131" />
<hkern u1="g" u2="&#x34;" k="43" />
<hkern u1="g" u2="&#x31;" k="43" />
<hkern u1="g" u2="&#x2e;" k="88" />
<hkern u1="g" u2="&#x2c;" k="57" />
<hkern u1="g" u2="&#x21;" k="109" />
<hkern u1="h" u2="j" k="51" />
<hkern u1="h" u2="J" k="51" />
<hkern u1="h" u2="&#x40;" k="-104" />
<hkern u1="h" u2="&#x3f;" k="-63" />
<hkern u1="h" u2="&#x30;" k="-49" />
<hkern u1="h" u2="&#x2e;" k="100" />
<hkern u1="h" u2="&#x2c;" k="70" />
<hkern u1="h" u2="&#x21;" k="102" />
<hkern u1="i" u2="z" k="131" />
<hkern u1="i" u2="y" k="264" />
<hkern u1="i" u2="x" k="106" />
<hkern u1="i" u2="v" k="184" />
<hkern u1="i" u2="t" k="270" />
<hkern u1="i" u2="s" k="219" />
<hkern u1="i" u2="q" k="117" />
<hkern u1="i" u2="o" k="117" />
<hkern u1="i" u2="j" k="256" />
<hkern u1="i" u2="i" k="270" />
<hkern u1="i" u2="g" k="231" />
<hkern u1="i" u2="e" k="231" />
<hkern u1="i" u2="c" k="231" />
<hkern u1="i" u2="Z" k="131" />
<hkern u1="i" u2="Y" k="264" />
<hkern u1="i" u2="X" k="106" />
<hkern u1="i" u2="V" k="184" />
<hkern u1="i" u2="T" k="270" />
<hkern u1="i" u2="S" k="219" />
<hkern u1="i" u2="Q" k="117" />
<hkern u1="i" u2="O" k="117" />
<hkern u1="i" u2="J" k="256" />
<hkern u1="i" u2="I" k="270" />
<hkern u1="i" u2="G" k="231" />
<hkern u1="i" u2="E" k="231" />
<hkern u1="i" u2="C" k="231" />
<hkern u1="i" u2="&#x40;" k="-88" />
<hkern u1="i" u2="&#x3f;" k="190" />
<hkern u1="i" u2="&#x39;" k="260" />
<hkern u1="i" u2="&#x37;" k="117" />
<hkern u1="i" u2="&#x36;" k="98" />
<hkern u1="i" u2="&#x34;" k="291" />
<hkern u1="i" u2="&#x33;" k="197" />
<hkern u1="i" u2="&#x32;" k="143" />
<hkern u1="i" u2="&#x31;" k="291" />
<hkern u1="i" u2="&#x30;" k="152" />
<hkern u1="i" u2="&#x2e;" k="313" />
<hkern u1="i" u2="&#x2c;" k="328" />
<hkern u1="i" u2="&#x21;" k="119" />
<hkern u1="j" u2="j" k="51" />
<hkern u1="j" u2="J" k="51" />
<hkern u1="j" u2="&#x40;" k="-104" />
<hkern u1="j" u2="&#x3f;" k="-63" />
<hkern u1="j" u2="&#x30;" k="-49" />
<hkern u1="j" u2="&#x2e;" k="100" />
<hkern u1="j" u2="&#x2c;" k="70" />
<hkern u1="j" u2="&#x21;" k="102" />
<hkern u1="k" u2="t" k="203" />
<hkern u1="k" u2="q" k="219" />
<hkern u1="k" u2="o" k="219" />
<hkern u1="k" u2="j" k="477" />
<hkern u1="k" u2="i" k="203" />
<hkern u1="k" u2="g" k="453" />
<hkern u1="k" u2="e" k="453" />
<hkern u1="k" u2="c" k="453" />
<hkern u1="k" u2="T" k="203" />
<hkern u1="k" u2="Q" k="219" />
<hkern u1="k" u2="O" k="219" />
<hkern u1="k" u2="J" k="477" />
<hkern u1="k" u2="I" k="203" />
<hkern u1="k" u2="G" k="453" />
<hkern u1="k" u2="E" k="453" />
<hkern u1="k" u2="C" k="453" />
<hkern u1="k" u2="&#x40;" k="76" />
<hkern u1="k" u2="&#x3f;" k="129" />
<hkern u1="k" u2="&#x39;" k="229" />
<hkern u1="k" u2="&#x38;" k="162" />
<hkern u1="k" u2="&#x36;" k="203" />
<hkern u1="k" u2="&#x34;" k="459" />
<hkern u1="k" u2="&#x31;" k="459" />
<hkern u1="k" u2="&#x30;" k="393" />
<hkern u1="k" u2="&#x2e;" k="57" />
<hkern u1="k" u2="&#x21;" k="106" />
<hkern u1="l" u2="z" k="231" />
<hkern u1="l" u2="y" k="229" />
<hkern u1="l" u2="x" k="211" />
<hkern u1="l" u2="v" k="109" />
<hkern u1="l" u2="t" k="254" />
<hkern u1="l" u2="j" k="51" />
<hkern u1="l" u2="i" k="254" />
<hkern u1="l" u2="Z" k="231" />
<hkern u1="l" u2="Y" k="229" />
<hkern u1="l" u2="X" k="211" />
<hkern u1="l" u2="V" k="109" />
<hkern u1="l" u2="T" k="254" />
<hkern u1="l" u2="J" k="51" />
<hkern u1="l" u2="I" k="254" />
<hkern u1="l" u2="&#x40;" k="-104" />
<hkern u1="l" u2="&#x3f;" k="174" />
<hkern u1="l" u2="&#x38;" k="158" />
<hkern u1="l" u2="&#x37;" k="219" />
<hkern u1="l" u2="&#x35;" k="193" />
<hkern u1="l" u2="&#x32;" k="285" />
<hkern u1="l" u2="&#x30;" k="-63" />
<hkern u1="l" u2="&#x2e;" k="559" />
<hkern u1="l" u2="&#x2c;" k="745" />
<hkern u1="l" u2="&#x21;" k="102" />
<hkern u1="m" u2="j" k="51" />
<hkern u1="m" u2="J" k="51" />
<hkern u1="m" u2="&#x40;" k="-104" />
<hkern u1="m" u2="&#x3f;" k="-63" />
<hkern u1="m" u2="&#x30;" k="-49" />
<hkern u1="m" u2="&#x2e;" k="100" />
<hkern u1="m" u2="&#x2c;" k="70" />
<hkern u1="m" u2="&#x21;" k="102" />
<hkern u1="n" u2="j" k="53" />
<hkern u1="n" u2="J" k="53" />
<hkern u1="n" u2="&#x40;" k="-104" />
<hkern u1="n" u2="&#x3f;" k="-63" />
<hkern u1="n" u2="&#x30;" k="-49" />
<hkern u1="n" u2="&#x2e;" k="100" />
<hkern u1="n" u2="&#x2c;" k="70" />
<hkern u1="n" u2="&#x21;" k="102" />
<hkern u1="o" u2="z" k="229" />
<hkern u1="o" u2="y" k="225" />
<hkern u1="o" u2="x" k="207" />
<hkern u1="o" u2="v" k="106" />
<hkern u1="o" u2="t" k="117" />
<hkern u1="o" u2="j" k="49" />
<hkern u1="o" u2="i" k="117" />
<hkern u1="o" u2="Z" k="229" />
<hkern u1="o" u2="Y" k="225" />
<hkern u1="o" u2="X" k="207" />
<hkern u1="o" u2="V" k="106" />
<hkern u1="o" u2="T" k="117" />
<hkern u1="o" u2="J" k="49" />
<hkern u1="o" u2="I" k="117" />
<hkern u1="o" u2="&#x40;" k="-106" />
<hkern u1="o" u2="&#x38;" k="74" />
<hkern u1="o" u2="&#x37;" k="215" />
<hkern u1="o" u2="&#x35;" k="96" />
<hkern u1="o" u2="&#x32;" k="88" />
<hkern u1="o" u2="&#x30;" k="-61" />
<hkern u1="o" u2="&#x2e;" k="346" />
<hkern u1="o" u2="&#x2c;" k="332" />
<hkern u1="o" u2="&#x21;" k="100" />
<hkern u1="p" u2="z" k="369" />
<hkern u1="p" u2="y" k="135" />
<hkern u1="p" u2="x" k="115" />
<hkern u1="p" u2="v" k="74" />
<hkern u1="p" u2="s" k="223" />
<hkern u1="p" u2="q" k="119" />
<hkern u1="p" u2="o" k="119" />
<hkern u1="p" u2="j" k="403" />
<hkern u1="p" u2="g" k="231" />
<hkern u1="p" u2="e" k="231" />
<hkern u1="p" u2="c" k="231" />
<hkern u1="p" u2="Z" k="369" />
<hkern u1="p" u2="Y" k="135" />
<hkern u1="p" u2="X" k="115" />
<hkern u1="p" u2="V" k="74" />
<hkern u1="p" u2="S" k="223" />
<hkern u1="p" u2="Q" k="119" />
<hkern u1="p" u2="O" k="119" />
<hkern u1="p" u2="J" k="403" />
<hkern u1="p" u2="G" k="231" />
<hkern u1="p" u2="E" k="231" />
<hkern u1="p" u2="C" k="231" />
<hkern u1="p" u2="&#x40;" k="-82" />
<hkern u1="p" u2="&#x39;" k="127" />
<hkern u1="p" u2="&#x37;" k="348" />
<hkern u1="p" u2="&#x36;" k="106" />
<hkern u1="p" u2="&#x34;" k="246" />
<hkern u1="p" u2="&#x33;" k="201" />
<hkern u1="p" u2="&#x31;" k="246" />
<hkern u1="p" u2="&#x30;" k="158" />
<hkern u1="p" u2="&#x2e;" k="633" />
<hkern u1="p" u2="&#x2c;" k="772" />
<hkern u1="p" u2="&#x21;" k="125" />
<hkern u1="q" u2="y" k="225" />
<hkern u1="q" u2="v" k="106" />
<hkern u1="q" u2="t" k="117" />
<hkern u1="q" u2="j" k="49" />
<hkern u1="q" u2="i" k="117" />
<hkern u1="q" u2="Y" k="225" />
<hkern u1="q" u2="V" k="106" />
<hkern u1="q" u2="T" k="117" />
<hkern u1="q" u2="J" k="49" />
<hkern u1="q" u2="I" k="117" />
<hkern u1="q" u2="&#x40;" k="-106" />
<hkern u1="q" u2="&#x38;" k="74" />
<hkern u1="q" u2="&#x35;" k="96" />
<hkern u1="q" u2="&#x30;" k="-53" />
<hkern u1="q" u2="&#x2e;" k="78" />
<hkern u1="q" u2="&#x2c;" k="49" />
<hkern u1="q" u2="&#x21;" k="100" />
<hkern u1="r" u2="y" k="117" />
<hkern u1="r" u2="v" k="55" />
<hkern u1="r" u2="q" k="100" />
<hkern u1="r" u2="o" k="100" />
<hkern u1="r" u2="j" k="385" />
<hkern u1="r" u2="g" k="213" />
<hkern u1="r" u2="e" k="213" />
<hkern u1="r" u2="c" k="213" />
<hkern u1="r" u2="Y" k="117" />
<hkern u1="r" u2="V" k="55" />
<hkern u1="r" u2="Q" k="100" />
<hkern u1="r" u2="O" k="100" />
<hkern u1="r" u2="J" k="385" />
<hkern u1="r" u2="G" k="213" />
<hkern u1="r" u2="E" k="213" />
<hkern u1="r" u2="C" k="213" />
<hkern u1="r" u2="&#x40;" k="-102" />
<hkern u1="r" u2="&#x3f;" k="-59" />
<hkern u1="r" u2="&#x39;" k="109" />
<hkern u1="r" u2="&#x36;" k="86" />
<hkern u1="r" u2="&#x34;" k="227" />
<hkern u1="r" u2="&#x31;" k="227" />
<hkern u1="r" u2="&#x30;" k="150" />
<hkern u1="r" u2="&#x2e;" k="57" />
<hkern u1="r" u2="&#x21;" k="104" />
<hkern u1="s" u2="t" k="197" />
<hkern u1="s" u2="j" k="49" />
<hkern u1="s" u2="i" k="197" />
<hkern u1="s" u2="T" k="197" />
<hkern u1="s" u2="J" k="49" />
<hkern u1="s" u2="I" k="197" />
<hkern u1="s" u2="&#x40;" k="-104" />
<hkern u1="s" u2="&#x3f;" k="123" />
<hkern u1="s" u2="&#x38;" k="162" />
<hkern u1="s" u2="&#x32;" k="180" />
<hkern u1="s" u2="&#x30;" k="-51" />
<hkern u1="s" u2="&#x2e;" k="590" />
<hkern u1="s" u2="&#x2c;" k="778" />
<hkern u1="s" u2="&#x21;" k="102" />
<hkern u1="t" u2="z" k="223" />
<hkern u1="t" u2="y" k="131" />
<hkern u1="t" u2="x" k="111" />
<hkern u1="t" u2="v" k="72" />
<hkern u1="t" u2="s" k="227" />
<hkern u1="t" u2="q" k="123" />
<hkern u1="t" u2="o" k="123" />
<hkern u1="t" u2="j" k="311" />
<hkern u1="t" u2="g" k="236" />
<hkern u1="t" u2="e" k="236" />
<hkern u1="t" u2="c" k="236" />
<hkern u1="t" u2="Z" k="223" />
<hkern u1="t" u2="Y" k="131" />
<hkern u1="t" u2="X" k="111" />
<hkern u1="t" u2="V" k="72" />
<hkern u1="t" u2="S" k="227" />
<hkern u1="t" u2="Q" k="123" />
<hkern u1="t" u2="O" k="123" />
<hkern u1="t" u2="J" k="311" />
<hkern u1="t" u2="G" k="236" />
<hkern u1="t" u2="E" k="236" />
<hkern u1="t" u2="C" k="236" />
<hkern u1="t" u2="&#x40;" k="-82" />
<hkern u1="t" u2="&#x39;" k="131" />
<hkern u1="t" u2="&#x37;" k="201" />
<hkern u1="t" u2="&#x36;" k="111" />
<hkern u1="t" u2="&#x34;" k="250" />
<hkern u1="t" u2="&#x33;" k="193" />
<hkern u1="t" u2="&#x31;" k="250" />
<hkern u1="t" u2="&#x30;" k="168" />
<hkern u1="t" u2="&#x2e;" k="373" />
<hkern u1="t" u2="&#x2c;" k="342" />
<hkern u1="t" u2="&#x21;" k="125" />
<hkern u1="u" u2="j" k="51" />
<hkern u1="u" u2="J" k="51" />
<hkern u1="u" u2="&#x40;" k="-104" />
<hkern u1="u" u2="&#x3f;" k="-63" />
<hkern u1="u" u2="&#x30;" k="-61" />
<hkern u1="u" u2="&#x2e;" k="526" />
<hkern u1="u" u2="&#x2c;" k="543" />
<hkern u1="u" u2="&#x21;" k="102" />
<hkern u1="v" u2="t" k="78" />
<hkern u1="v" u2="s" k="139" />
<hkern u1="v" u2="q" k="121" />
<hkern u1="v" u2="o" k="121" />
<hkern u1="v" u2="j" k="172" />
<hkern u1="v" u2="i" k="78" />
<hkern u1="v" u2="g" k="150" />
<hkern u1="v" u2="e" k="150" />
<hkern u1="v" u2="c" k="150" />
<hkern u1="v" u2="T" k="78" />
<hkern u1="v" u2="S" k="139" />
<hkern u1="v" u2="Q" k="121" />
<hkern u1="v" u2="O" k="121" />
<hkern u1="v" u2="J" k="172" />
<hkern u1="v" u2="I" k="78" />
<hkern u1="v" u2="G" k="150" />
<hkern u1="v" u2="E" k="150" />
<hkern u1="v" u2="C" k="150" />
<hkern u1="v" u2="&#x39;" k="129" />
<hkern u1="v" u2="&#x38;" k="43" />
<hkern u1="v" u2="&#x36;" k="106" />
<hkern u1="v" u2="&#x34;" k="160" />
<hkern u1="v" u2="&#x32;" k="57" />
<hkern u1="v" u2="&#x31;" k="160" />
<hkern u1="v" u2="&#x30;" k="74" />
<hkern u1="v" u2="&#x2e;" k="373" />
<hkern u1="v" u2="&#x2c;" k="348" />
<hkern u1="v" u2="&#x21;" k="113" />
<hkern u1="w" u2="j" k="51" />
<hkern u1="w" u2="J" k="51" />
<hkern u1="w" u2="&#x40;" k="-104" />
<hkern u1="w" u2="&#x3f;" k="-63" />
<hkern u1="w" u2="&#x30;" k="-49" />
<hkern u1="w" u2="&#x2e;" k="100" />
<hkern u1="w" u2="&#x2c;" k="70" />
<hkern u1="w" u2="&#x21;" k="102" />
<hkern u1="x" u2="t" k="102" />
<hkern u1="x" u2="q" k="205" />
<hkern u1="x" u2="o" k="205" />
<hkern u1="x" u2="j" k="262" />
<hkern u1="x" u2="i" k="102" />
<hkern u1="x" u2="g" k="238" />
<hkern u1="x" u2="e" k="238" />
<hkern u1="x" u2="c" k="238" />
<hkern u1="x" u2="T" k="102" />
<hkern u1="x" u2="Q" k="205" />
<hkern u1="x" u2="O" k="205" />
<hkern u1="x" u2="J" k="262" />
<hkern u1="x" u2="I" k="102" />
<hkern u1="x" u2="G" k="238" />
<hkern u1="x" u2="E" k="238" />
<hkern u1="x" u2="C" k="238" />
<hkern u1="x" u2="&#x39;" k="213" />
<hkern u1="x" u2="&#x38;" k="66" />
<hkern u1="x" u2="&#x36;" k="186" />
<hkern u1="x" u2="&#x34;" k="244" />
<hkern u1="x" u2="&#x31;" k="244" />
<hkern u1="x" u2="&#x30;" k="170" />
<hkern u1="x" u2="&#x2e;" k="68" />
<hkern u1="x" u2="&#x21;" k="92" />
<hkern u1="y" u2="t" k="111" />
<hkern u1="y" u2="s" k="233" />
<hkern u1="y" u2="q" k="211" />
<hkern u1="y" u2="o" k="211" />
<hkern u1="y" u2="j" k="266" />
<hkern u1="y" u2="i" k="111" />
<hkern u1="y" u2="g" k="244" />
<hkern u1="y" u2="e" k="244" />
<hkern u1="y" u2="c" k="244" />
<hkern u1="y" u2="T" k="111" />
<hkern u1="y" u2="S" k="233" />
<hkern u1="y" u2="Q" k="211" />
<hkern u1="y" u2="O" k="211" />
<hkern u1="y" u2="J" k="266" />
<hkern u1="y" u2="I" k="111" />
<hkern u1="y" u2="G" k="244" />
<hkern u1="y" u2="E" k="244" />
<hkern u1="y" u2="C" k="244" />
<hkern u1="y" u2="&#x39;" k="221" />
<hkern u1="y" u2="&#x38;" k="78" />
<hkern u1="y" u2="&#x36;" k="199" />
<hkern u1="y" u2="&#x34;" k="254" />
<hkern u1="y" u2="&#x32;" k="90" />
<hkern u1="y" u2="&#x31;" k="254" />
<hkern u1="y" u2="&#x30;" k="174" />
<hkern u1="y" u2="&#x2e;" k="352" />
<hkern u1="y" u2="&#x2c;" k="322" />
<hkern u1="y" u2="&#x21;" k="98" />
<hkern u1="z" u2="t" k="111" />
<hkern u1="z" u2="q" k="211" />
<hkern u1="z" u2="o" k="211" />
<hkern u1="z" u2="j" k="266" />
<hkern u1="z" u2="i" k="111" />
<hkern u1="z" u2="g" k="244" />
<hkern u1="z" u2="e" k="244" />
<hkern u1="z" u2="c" k="244" />
<hkern u1="z" u2="T" k="111" />
<hkern u1="z" u2="Q" k="211" />
<hkern u1="z" u2="O" k="211" />
<hkern u1="z" u2="J" k="266" />
<hkern u1="z" u2="I" k="111" />
<hkern u1="z" u2="G" k="244" />
<hkern u1="z" u2="E" k="244" />
<hkern u1="z" u2="C" k="244" />
<hkern u1="z" u2="&#x39;" k="221" />
<hkern u1="z" u2="&#x38;" k="78" />
<hkern u1="z" u2="&#x36;" k="195" />
<hkern u1="z" u2="&#x34;" k="254" />
<hkern u1="z" u2="&#x31;" k="254" />
<hkern u1="z" u2="&#x30;" k="180" />
<hkern u1="z" u2="&#x2e;" k="51" />
<hkern u1="z" u2="&#x21;" k="98" />
</font>
</defs></svg> 